<?xml version="1.0" encoding="utf-8"?>
<!-- Generator: Adobe Illustrator 23.1.1, SVG Export Plug-In . SVG Version: 6.00 Build 0)  -->
<svg version="1.1" id="Layer_1" xmlns="http://www.w3.org/2000/svg" xmlns:xlink="http://www.w3.org/1999/xlink" x="0px" y="0px"
	 viewBox="0 0 252 250" style="enable-background:new 0 0 252 250;" xml:space="preserve">
<style type="text/css">
	.st0{fill:#AFCA0B;}
	.st1{fill:#FFFFFF;}
	.st2{fill-rule:evenodd;clip-rule:evenodd;fill:#FFFFFF;}
	.st3{fill:#0C4936;}
</style>
<path class="st0" d="M0,0h252v156.7H0V0z"/>
<path class="st1" d="M46.6,127c0.3-1.3,0.7-2.6,1-4c0.3-1,0.5-1.9,0.8-2.9c0.3-1,0-1.6-1.1-1.7c-0.9-0.1-1.9-0.3-2.8-0.5
	c-0.4-0.1-0.8-0.4-1.2-0.6c0.3-0.4,0.5-0.8,0.9-1.1c1.8-1.2,3.6-2.4,5.3-3.7c0.8-0.6,1.5-1.5,1.8-2.4c0.8-2.2,1.4-4.5,2.1-6.8
	c0.2-0.6,0.5-1,0.7-1.6c0.2,0,0.3,0,0.5,0c0.3,0.7,0.5,1.5,0.8,2.2c0.4,1,0.8,2,1.2,3c0.5,1.2,1,1.4,2.1,0.6c1.7-1.3,3.4-2.7,5.1-4
	c7.4-6,15.3-11.3,23.4-16.1c5.8-3.4,11.6-6.8,17.6-9.8c9.9-4.9,20.2-8.6,30.8-11.4c2.3-0.6,4.7-1.2,7.1-1.7c0.5-0.1,1,0,1.5,0
	c0,0.2,0.1,0.3,0.1,0.5c-0.7,0.2-1.4,0.5-2.1,0.7c-13.3,3.6-26.3,8.1-38.4,14.7c-7,3.8-13.7,8.2-20.2,12.7
	c-5.2,3.6-10.1,7.6-15,11.6c-3,2.5-5.8,5.3-8.5,8.1c-0.5,0.6-0.5,1.9-0.3,2.7c0.3,1.3,0.9,2.6,1.4,3.9c0.1,0.4,0.3,0.9,0.1,1.2
	c-0.2,0.2-0.8,0.3-1.2,0.2c-1.4-0.2-2.8-0.5-4.2-0.8c-1.2-0.3-2.1,0-2.9,0.9c-1.6,1.8-3.3,3.5-5,5.3c-0.3,0.3-0.6,0.6-0.9,0.9
	C46.9,127.1,46.7,127,46.6,127z"/>
<path class="st2" d="M46.6,127c0,0,0.1,0,0.1,0c0.1,0,0.2,0.1,0.3,0c0.3-0.3,0.6-0.6,0.9-0.9c0.5-0.5,1-1,1.4-1.5
	c0.3-0.3,0.6-0.6,0.9-0.9c0,0,0,0,0,0c0.6-0.6,1.2-1.3,1.8-2c0.3-0.3,0.5-0.6,0.8-0.9c0.8-0.9,1.7-1.2,2.9-0.9
	c0.5,0.1,0.9,0.2,1.4,0.3c0,0,0.1,0,0.1,0c0.2,0,0.3,0.1,0.5,0.1c0.1,0,0.2,0,0.3,0.1c0.7,0.1,1.3,0.2,2,0.3c0.4,0.1,1,0,1.2-0.2
	c0.2-0.3,0-0.8-0.1-1.2l0,0c-0.1-0.4-0.3-0.8-0.5-1.2c0-0.1-0.1-0.2-0.1-0.4c0,0,0,0,0,0c-0.1-0.3-0.2-0.6-0.3-0.9c0,0,0-0.1,0-0.1
	c-0.1-0.4-0.3-0.9-0.4-1.3c-0.2-0.9-0.2-2.2,0.3-2.7c2.1-2.2,4.2-4.3,6.4-6.3c0.7-0.6,1.3-1.2,2-1.8c4.9-4,9.8-8.1,15-11.6
	c1.7-1.1,3.3-2.3,5-3.4l0,0c5-3.3,10-6.5,15.2-9.3c0.6-0.3,1.3-0.7,1.9-1l0,0c9.7-5,19.8-8.8,30.3-11.9l0,0c2.1-0.6,4.2-1.2,6.2-1.8
	c0.2-0.1,0.5-0.1,0.7-0.2c0,0,0,0,0,0c0.2-0.1,0.4-0.2,0.7-0.2c0.2-0.1,0.4-0.1,0.6-0.2c0,0,0.1,0,0.1,0l-0.1-0.5c0,0-0.1,0-0.1,0
	c-0.1,0-0.3,0-0.4,0c-0.4,0-0.7,0-1,0c-0.2,0.1-0.5,0.1-0.7,0.2c0,0,0,0,0,0c-2.1,0.5-4.2,1-6.3,1.5c-10.6,2.8-21,6.5-30.8,11.4
	c-0.7,0.3-1.3,0.7-2,1l0,0c-5.3,2.7-10.4,5.7-15.6,8.8c-1.8,1.1-3.6,2.2-5.3,3.3l0,0c-5.4,3.4-10.7,7.1-15.8,11c0,0,0,0,0,0
	c-0.7,0.6-1.4,1.1-2.1,1.7c0,0-0.1,0.1-0.1,0.1c-0.4,0.3-0.7,0.6-1.1,0.9c-1.3,1.1-2.6,2.1-4,3.1c-1.1,0.8-1.6,0.6-2.1-0.6
	c0,0,0-0.1,0-0.1c-0.1-0.2-0.2-0.4-0.2-0.6c-0.3-0.8-0.6-1.6-0.9-2.3c0,0,0,0,0,0c0,0,0,0,0,0c-0.2-0.5-0.3-0.9-0.5-1.4
	c-0.1-0.2-0.1-0.4-0.2-0.5c0-0.1-0.1-0.2-0.1-0.3h-0.5c0,0.1-0.1,0.1-0.1,0.2c0,0.1-0.1,0.2-0.1,0.3c-0.2,0.3-0.3,0.7-0.5,1.1
	c-0.2,0.5-0.3,1-0.5,1.5c0,0,0,0.1,0,0.1c-0.1,0.2-0.1,0.4-0.2,0.7c-0.1,0.5-0.3,1-0.4,1.5c-0.3,1-0.6,2-1,3c-0.3,0.9-1,1.8-1.8,2.4
	c-0.8,0.7-1.7,1.3-2.6,1.9c-0.3,0.2-0.6,0.4-0.8,0.6c-0.3,0.2-0.7,0.5-1,0.7c0,0-0.1,0.1-0.1,0.1c-0.3,0.2-0.5,0.4-0.8,0.5
	c-0.3,0.2-0.5,0.5-0.6,0.8c-0.1,0.1-0.2,0.2-0.3,0.4c0.1,0.1,0.3,0.1,0.4,0.2c0.3,0.2,0.5,0.3,0.8,0.4c0.4,0.1,0.7,0.2,1.1,0.2
	c0,0,0.1,0,0.1,0c0.5,0.1,1,0.2,1.4,0.2l0.1,0c0.2,0,0.4,0.1,0.5,0.1c0.5,0.2,0.8,0.6,0.7,1.2c0,0.1,0,0.2-0.1,0.4
	c-0.2,0.6-0.4,1.3-0.5,1.9c-0.1,0.3-0.2,0.6-0.3,1c0,0,0,0.1,0,0.1l0,0c-0.2,0.7-0.4,1.4-0.6,2.2c0,0,0,0,0,0
	c-0.1,0.3-0.2,0.6-0.2,0.9c0,0.2-0.1,0.3-0.1,0.5C46.7,126.8,46.6,126.9,46.6,127z"/>
<path class="st1" d="M85.8,120.6c0.1-0.6,0.2-1.1,0.4-1.6c0.6-1.5,1.2-3,1.8-4.4c0.6-1.5,0.4-2-0.9-2.9c-1.4-0.9-2.7-1.7-4.4-2.8
	c0.5-0.3,0.8-0.5,1.1-0.5c1.7-0.2,3.4-0.4,5.1-0.5c1.1-0.1,1.9-0.5,2.4-1.5c0.6-1.4,1.2-2.9,1.8-4.3c0.2-0.4,0.4-0.8,0.8-1.5
	c0.3,0.7,0.6,1.1,0.7,1.5c0.3,1.2,0.7,2.5,1,3.8c0.3,1,0.9,1.6,2,1.6c1.8,0,3.5,0.1,5.3,0.3c0.1,0,0.3,0.1,0.7,0.3
	c-0.5,0.4-0.9,0.7-1.2,1c-1.3,0.8-2.6,1.6-3.8,2.4c-0.9,0.6-1.3,1.4-1,2.5c0.4,1.6,0.7,3.2,1,4.8c0.1,0.4,0.1,0.8,0.1,1.2
	c-0.1,0.1-0.2,0.1-0.3,0.2c-1-0.8-1.9-1.5-2.9-2.2c-2.5-2-2.5-2.6-5.5-0.1c-1.3,1-2.6,2-3.9,3C86.1,120.8,85.9,120.7,85.8,120.6z"/>
<path class="st2" d="M87.6,112c-0.1-0.1-0.3-0.2-0.5-0.3c-1-0.6-2-1.3-3.1-2c0,0,0,0,0,0c-0.4-0.2-0.8-0.5-1.2-0.8
	c0.1-0.1,0.3-0.1,0.4-0.2c0.3-0.2,0.5-0.3,0.7-0.3c1.6-0.2,3.2-0.4,4.8-0.5c0.1,0,0.2,0,0.3,0c1.1-0.1,1.9-0.5,2.4-1.5
	c0.1-0.2,0.1-0.3,0.2-0.5c0.2-0.6,0.5-1.1,0.7-1.7c0.2-0.6,0.5-1.1,0.7-1.7c0,0,0,0,0,0c0.1-0.2,0.1-0.3,0.2-0.5
	c0.1-0.2,0.2-0.5,0.4-0.7c0.1-0.2,0.3-0.5,0.4-0.8c0.1,0.2,0.2,0.4,0.3,0.5c0.2,0.4,0.4,0.7,0.4,1c0.1,0.2,0.1,0.5,0.2,0.7
	c0,0,0,0,0,0.1c0.3,1,0.5,2,0.8,3c0,0.1,0.1,0.3,0.1,0.4c0.3,0.7,0.8,1.1,1.7,1.2c0.1,0,0.1,0,0.2,0c1.3,0,2.5,0.1,3.8,0.2
	c0,0,0,0,0,0c0.2,0,0.4,0,0.6,0c0.3,0,0.6,0,0.9,0.1c0.1,0,0.2,0.1,0.4,0.2c0.1,0,0.2,0.1,0.3,0.2c-0.1,0.1-0.1,0.1-0.2,0.2
	c-0.2,0.1-0.3,0.3-0.5,0.4c0,0,0,0-0.1,0c-0.2,0.1-0.4,0.3-0.5,0.4c-0.6,0.4-1.3,0.8-1.9,1.2c-0.6,0.4-1.3,0.8-1.9,1.2c0,0,0,0,0,0
	c-0.9,0.6-1.3,1.4-1,2.5c0.1,0.2,0.1,0.5,0.2,0.7c0,0.1,0.1,0.3,0.1,0.4c0,0,0,0,0,0c0.2,0.8,0.3,1.6,0.5,2.4
	c0.1,0.4,0.2,0.8,0.2,1.2c0.1,0.3,0.1,0.5,0.1,0.8c0,0.1,0,0.2,0,0.2c0,0.1,0,0.1,0,0.2c0,0-0.1,0.1-0.1,0.1c-0.1,0-0.1,0.1-0.2,0.1
	c-0.1-0.1-0.2-0.1-0.2-0.2c-0.3-0.2-0.5-0.4-0.8-0.6c-0.1-0.1-0.3-0.2-0.4-0.3c0,0,0,0,0,0c-0.5-0.4-0.9-0.7-1.4-1.1
	c-0.2-0.2-0.5-0.4-0.7-0.6c-0.3-0.2-0.5-0.4-0.7-0.6c-0.9-0.7-1.5-0.9-2.7-0.1c-0.4,0.3-0.9,0.6-1.5,1.1c-0.2,0.2-0.4,0.4-0.7,0.6
	c-0.5,0.4-1,0.8-1.6,1.2c0,0,0,0,0,0c-0.2,0.1-0.4,0.3-0.6,0.4c-0.3,0.2-0.6,0.5-0.9,0.7c0,0-0.1,0.1-0.1,0.1c0,0,0,0,0,0
	c0,0-0.1-0.1-0.2-0.1c0,0,0-0.1,0-0.1c0-0.1,0-0.2,0.1-0.3c0.1-0.4,0.1-0.8,0.3-1.2c0.5-1.3,1-2.5,1.5-3.8c0,0,0,0,0,0
	c0.1-0.2,0.2-0.4,0.3-0.6h0c0.1-0.1,0.1-0.3,0.2-0.4C88.5,113.2,88.4,112.6,87.6,112z"/>
<path class="st1" d="M58.7,87.5c1-1.3,2-2.6,3-3.8c1.8-2.2,1.8-2.3-0.7-3.7c-1-0.6-2.1-1.1-3.2-1.7c0,0,0-0.1-0.1-0.3
	c0.3-0.1,0.7-0.3,1.1-0.3c2.1-0.1,4.2-0.2,6.2-0.3c1.1,0,2-0.4,2.6-1.3c0.8-1.2,1.8-2.4,2.6-3.5c0.3-0.4,0.4-0.9,0.6-1.3
	c0.3,0.1,0.5,0.3,0.8,0.5c0.2,1.3,0.4,2.6,0.5,3.9c0.1,1.7,0.5,2.2,2.2,2.4c1.7,0.2,3.3,0.6,5,0.8c0.2,0,0.4,0.2,0.8,0.5
	c-1.6,0.6-2.9,1.1-4.3,1.6c-0.6,0.2-1.2,0.4-1.8,0.7c-0.9,0.4-1.5,1.1-1.4,2.2c0.1,1.5,0,3,0,4.9c-0.6-0.4-1-0.6-1.3-0.8
	c-0.9-0.8-1.8-1.5-2.6-2.4c-0.9-0.9-1.9-1-2.9-0.6c-1.7,0.7-3.5,1.5-5.2,2.3c-0.5,0.2-1.1,0.4-1.6,0.6
	C58.9,87.7,58.8,87.6,58.7,87.5z"/>
<path class="st2" d="M58.8,87.4c0,0-0.1,0.1-0.1,0.1l0,0c0,0,0.1,0.1,0.1,0.1c0.1,0.1,0.2,0.2,0.2,0.3c0.1,0,0.1,0,0.2-0.1
	c0.1,0,0.2-0.1,0.3-0.1c0.4-0.1,0.8-0.3,1.1-0.5c0.5-0.2,1-0.5,1.5-0.7c0.6-0.3,1.3-0.6,1.9-0.9c0,0,0,0,0,0
	c0.5-0.2,1.1-0.5,1.6-0.7c0,0,0.1,0,0.1,0c1-0.5,2-0.4,2.9,0.5c0,0,0.1,0.1,0.1,0.1c0.6,0.7,1.4,1.3,2.1,1.9
	c0.2,0.1,0.3,0.3,0.5,0.4c0.2,0.2,0.5,0.3,0.8,0.5c0.1,0.1,0.3,0.2,0.5,0.3c0-0.6,0-1.1,0-1.6c0-0.2,0-0.5,0-0.7c0,0,0,0,0-0.1
	c0-0.9,0-1.7,0-2.5c0,0,0-0.1,0-0.1c0-0.9,0.3-1.4,1-1.8c0.1-0.1,0.2-0.1,0.2-0.1c0,0,0,0,0.1,0c0.1,0,0.1-0.1,0.2-0.1
	c0.4-0.2,0.8-0.3,1.3-0.5c0.2-0.1,0.4-0.1,0.5-0.2c1-0.4,1.9-0.7,3-1.1c0.1,0,0.2-0.1,0.4-0.1c0,0,0,0,0,0c0.3-0.1,0.6-0.2,1-0.4
	c-0.1-0.1-0.3-0.2-0.4-0.2c-0.2-0.2-0.4-0.3-0.5-0.3c-0.5-0.1-0.9-0.2-1.4-0.3c-1-0.2-2.1-0.4-3.2-0.5c0,0,0,0,0,0
	c-0.1,0-0.3,0-0.4-0.1c-0.5-0.1-0.9-0.2-1.2-0.3c-0.5-0.2-0.7-0.5-0.9-1.1c-0.1-0.3-0.1-0.6-0.1-1c0-0.6-0.1-1.3-0.2-1.9
	c0,0,0,0,0,0c0-0.2-0.1-0.4-0.1-0.7c-0.1-0.4-0.1-0.9-0.2-1.3c-0.1-0.1-0.3-0.2-0.4-0.2c-0.1-0.1-0.2-0.2-0.4-0.2
	c-0.1,0.2-0.1,0.3-0.2,0.5c0,0,0,0.1,0,0.1c-0.1,0.3-0.2,0.5-0.3,0.7c-0.2,0.3-0.4,0.6-0.6,0.9c-0.2,0.3-0.5,0.6-0.7,0.9
	c-0.3,0.4-0.6,0.8-0.9,1.1c-0.2,0.2-0.3,0.4-0.5,0.6C67,77,66.1,77.4,65,77.4c-0.2,0-0.4,0-0.6,0c-0.6,0-1.3,0-1.9,0.1c0,0,0,0,0,0
	c-1.2,0.1-2.5,0.1-3.7,0.2c-0.1,0-0.3,0-0.4,0.1c-0.1,0-0.2,0.1-0.3,0.1c0,0,0,0,0,0c-0.1,0-0.2,0.1-0.3,0.1c0,0.1,0.1,0.2,0.1,0.2
	c0,0,0,0.1,0,0.1c0.3,0.2,0.6,0.3,1,0.5c0,0,0,0,0.1,0c0,0,0.1,0,0.1,0.1c0.7,0.4,1.4,0.7,2,1.1c1.1,0.6,1.7,1,1.9,1.4
	c0,0.1,0,0.3,0,0.4c-0.1,0.4-0.5,1-1.2,1.8c-0.6,0.7-1.2,1.4-1.7,2.1c0,0,0,0,0,0C59.6,86.3,59.2,86.8,58.8,87.4z"/>
<path class="st1" d="M76.1,63.3c0.5-1.3,1-2.6,1.5-3.9c0.8-2,0.8-2.1-1.3-2.7c-1.8-0.5-3.6-1-5.7-1.5c0.4-0.3,0.6-0.5,0.8-0.5
	c2-0.4,4-0.8,6-1c1.6-0.2,2.9-0.7,3.3-2.6c0.2-1,0.6-1.9,1-2.8c0.1-0.3,0.4-0.7,0.6-0.7c0.3,0,0.6,0.3,0.8,0.6
	c0.7,1,1.3,2.1,1.9,3.2c0.5,1,1.3,1.5,2.4,1.4c1.8-0.1,3.6-0.3,5.4-0.4c0.4,0,0.8,0.1,1.2,0.1c0,0.1,0.1,0.2,0.1,0.3
	c-1.1,0.8-2.2,1.6-3.3,2.4c-0.2,0.1-0.4,0.2-0.6,0.3c-2.1,1.3-2.1,1.4-1,3.5c0.6,1,1,2.1,1.5,3.1c0.1,0.1,0,0.2,0,0.6
	c-0.5-0.2-1-0.3-1.3-0.5c-1.5-0.8-3-1.7-4.5-2.2c-0.8-0.3-2-0.2-2.8,0.2c-2,1-3.8,2.3-5.8,3.4C76.4,63.5,76.2,63.4,76.1,63.3z"/>
<path class="st2" d="M76.2,63.1c0,0.1,0,0.1-0.1,0.2c0.1,0.1,0.3,0.2,0.4,0.3c0.1,0,0.1-0.1,0.2-0.1c0.5-0.3,1-0.6,1.5-0.9
	c1-0.6,1.9-1.2,2.9-1.8c0,0,0,0,0,0c0.1-0.1,0.2-0.1,0.3-0.2c0.3-0.1,0.5-0.3,0.8-0.4c0.8-0.4,2-0.5,2.8-0.2c0.1,0,0.3,0.1,0.4,0.2
	c0.3,0.1,0.6,0.3,0.9,0.4c0,0,0,0,0,0c0.6,0.3,1.1,0.6,1.7,0.9c0.5,0.3,1,0.5,1.4,0.8c0.2,0.1,0.4,0.2,0.6,0.3c0,0,0.1,0,0.1,0
	c0.1,0,0.1,0,0.2,0.1c0.1,0,0.2,0.1,0.3,0.1c0-0.1,0-0.2,0-0.3c0-0.1,0-0.2,0-0.2c-0.2-0.4-0.4-0.9-0.6-1.3c0,0,0,0,0-0.1
	c-0.3-0.6-0.6-1.2-0.9-1.8c-0.4-0.9-0.7-1.4-0.7-1.8c0-0.2,0-0.3,0.1-0.5c0.2-0.4,0.7-0.7,1.6-1.2c0.1,0,0.2-0.1,0.2-0.1
	c0.1-0.1,0.2-0.1,0.3-0.2l3.3-2.4c0-0.1,0-0.1-0.1-0.2c0-0.1,0-0.1-0.1-0.2c0,0-0.1,0-0.1,0c-0.1,0-0.2,0-0.3,0
	c-0.3,0-0.5-0.1-0.8,0c-1.2,0.1-2.5,0.2-3.7,0.3c0,0-0.1,0-0.1,0c-0.1,0-0.3,0-0.4,0c0,0-0.1,0-0.1,0c-0.4,0-0.8,0.1-1.2,0.1
	c-0.1,0-0.2,0-0.4,0c-0.9,0-1.6-0.6-2-1.4c-0.1-0.1-0.1-0.2-0.2-0.3c-0.1-0.1-0.1-0.2-0.2-0.4c-0.3-0.6-0.7-1.2-1.1-1.7c0,0,0,0,0,0
	c-0.2-0.3-0.3-0.5-0.5-0.8c-0.2-0.3-0.5-0.6-0.8-0.6c-0.2,0-0.5,0.4-0.6,0.7c-0.1,0.2-0.2,0.4-0.3,0.6c-0.1,0.1-0.1,0.3-0.2,0.4
	c0,0,0,0,0,0.1c-0.2,0.5-0.4,1.1-0.5,1.7c0,0,0,0.1,0,0.1c0,0.2-0.1,0.3-0.1,0.5c-0.3,0.9-1,1.4-1.8,1.6c-0.4,0.1-0.9,0.2-1.3,0.3
	c-0.1,0-0.2,0-0.3,0c0,0,0,0,0,0c-1.8,0.3-3.6,0.6-5.4,0.9c-0.1,0-0.2,0-0.3,0.1c-0.2,0-0.3,0.1-0.5,0.3c-0.1,0.1-0.2,0.2-0.4,0.3
	c0.3,0.1,0.6,0.2,0.9,0.2c0,0,0,0,0.1,0c1.7,0.4,3.2,0.9,4.7,1.3c1,0.3,1.5,0.4,1.7,0.8c0,0,0,0,0,0c0,0,0,0,0,0.1
	c0,0.1,0,0.2,0,0.3c0,0.3-0.2,0.8-0.5,1.5c-0.3,0.7-0.5,1.3-0.8,1.9C76.7,61.9,76.4,62.5,76.2,63.1z"/>
<path class="st1" d="M118.2,40.5c-1.1,0.4-1.9,0.6-2.8,0.9c-0.6,0.2-1.1,0.4-1.7,0.6c-1.1,0.4-1.4,1-0.8,2.1
	c0.7,1.3,1.2,2.6,1.8,3.9c0.2,0.4,0.3,0.8,0.1,1.4c-0.4-0.2-0.7-0.5-1.1-0.7c-1.5-1.1-2.9-2.2-4.4-3.3c-1-0.7-2-0.8-3.1-0.3
	c-1,0.5-2,1-3.1,1.5c-0.4,0.2-0.9,0.3-1.7,0.6c0.4-1.6,0.6-2.9,1-4.1c0.4-1.3,0.2-2.1-1-2.7c-1.7-0.9-3.3-1.9-4.9-2.8
	c-0.3-0.2-0.6-0.4-0.9-0.6c0-0.1,0.1-0.3,0.1-0.4c1.3,0.1,2.7,0.1,4,0.3c1,0.1,1.9,0.3,2.9,0.4c1,0.1,1.6-0.5,1.8-1.4
	c0.3-1.3,0.7-2.6,1-4c0.1,0,0.3-0.1,0.4-0.1c0.4,0.5,0.8,1,1.1,1.6c0.6,1,1.2,2.1,1.7,3.2c0.6,1.2,1.6,1.8,2.9,2.1
	c1.9,0.4,3.8,0.9,5.7,1.4C117.7,39.8,117.8,40.1,118.2,40.5z"/>
<path class="st2" d="M96,36.4c0,0-0.1,0-0.1,0c0,0.1,0,0.1,0,0.2c0,0.1,0,0.1,0,0.2c0,0,0,0,0.1,0c0.1,0.1,0.2,0.1,0.3,0.2
	c0.2,0.1,0.4,0.3,0.6,0.4c0.4,0.3,0.9,0.5,1.3,0.8c0.5,0.3,1.1,0.6,1.6,0.9c0,0,0,0,0,0c0.7,0.4,1.3,0.8,2,1.2
	c0.3,0.2,0.6,0.4,0.8,0.6c0,0,0,0,0,0c0,0.1,0.1,0.1,0.1,0.2c0.2,0.4,0.3,0.8,0.2,1.3c0,0.2-0.1,0.4-0.2,0.6
	c-0.1,0.4-0.2,0.8-0.4,1.2c0,0,0,0,0,0.1c-0.1,0.5-0.2,0.9-0.3,1.5c-0.1,0.5-0.2,0.9-0.3,1.4c0.3-0.1,0.5-0.2,0.7-0.2
	c0.4-0.1,0.7-0.2,1-0.3c1-0.4,1.9-0.9,2.8-1.3c0.1,0,0.1-0.1,0.2-0.1c0.9-0.5,1.8-0.5,2.7,0c0.2,0.1,0.3,0.2,0.5,0.3
	c0.2,0.1,0.3,0.3,0.5,0.4c0,0,0,0,0,0c0.5,0.4,1.1,0.8,1.6,1.2c0.7,0.5,1.3,1,2,1.5c0,0,0,0,0,0c0.1,0,0.1,0.1,0.2,0.1
	c0.4,0.3,0.7,0.5,1.1,0.7c0.1-0.6,0-1-0.1-1.4c-0.1-0.1-0.1-0.3-0.2-0.4c0,0,0,0,0,0c-0.1-0.2-0.2-0.5-0.3-0.7
	c-0.4-0.9-0.8-1.8-1.3-2.7c-0.3-0.6-0.4-1-0.2-1.3c0,0,0,0,0,0c0.1-0.3,0.5-0.6,1-0.8c0.3-0.1,0.6-0.2,0.9-0.3
	c0.3-0.1,0.6-0.2,0.9-0.3c0.3-0.1,0.7-0.2,1-0.3c0.2-0.1,0.5-0.2,0.8-0.2c0,0,0.1,0,0.1,0c0.3-0.1,0.6-0.2,0.9-0.3
	c-0.1-0.1-0.2-0.2-0.2-0.2c-0.3-0.3-0.4-0.4-0.6-0.4c-0.9-0.2-1.9-0.5-2.8-0.7c0,0,0,0,0,0c-0.7-0.2-1.4-0.3-2.1-0.5
	c0,0-0.1,0-0.1,0c-0.2,0-0.4-0.1-0.6-0.1c0,0,0,0,0,0c-1.3-0.3-2.3-0.8-2.9-2.1c-0.1-0.1-0.1-0.3-0.2-0.4c-0.5-1-1-1.9-1.5-2.8
	c-0.3-0.4-0.6-0.9-0.9-1.3c0,0-0.1-0.1-0.1-0.1c-0.1-0.1-0.1-0.1-0.2-0.2c-0.1,0-0.1,0-0.2,0c-0.1,0-0.1,0-0.2,0
	c0,0.1,0,0.2-0.1,0.3c-0.1,0.6-0.3,1.2-0.4,1.7c-0.1,0.3-0.1,0.5-0.2,0.8c0,0,0,0,0,0c-0.1,0.4-0.2,0.8-0.3,1.2
	c-0.1,0.3-0.2,0.5-0.3,0.7c-0.1,0.2-0.3,0.4-0.5,0.5c-0.1,0.1-0.2,0.1-0.4,0.1c0,0,0,0,0,0c-0.2,0.1-0.4,0.1-0.7,0
	c-0.5,0-1-0.1-1.5-0.2c-0.5-0.1-1-0.2-1.5-0.2c-0.9-0.1-1.7-0.1-2.6-0.2c0,0,0,0,0,0c0,0,0,0,0,0C96.8,36.5,96.4,36.5,96,36.4z"/>
<path class="st1" d="M140.4,96.8c1.4,0.6,2.9,1.1,4.2,1.6c2.9,1.2,2.8,1.2,3.8-1.7c0.3-0.8,0.6-1.5,0.8-2.3c0.1,0,0.3,0,0.5,0
	c0.6,1.5,1.3,2.9,1.7,4.4c0.7,2.4,2.5,3.2,4.7,3.7c1.4,0.3,2.7,0.6,4.1,0.9c0,0.1,0,0.3,0.1,0.4c-0.7,0.3-1.4,0.6-2.2,0.9
	c-0.7,0.3-1.4,0.6-2.2,0.9c-1.1,0.3-1.1,1-0.7,1.9c0.6,1.3,1.2,2.5,1.9,3.7c0.2,0.4,0.3,0.8,0.7,1.5c-0.7-0.3-1-0.4-1.3-0.6
	c-1.5-1.1-3-2.1-4.3-3.3c-1.1-1-2.2-1.5-3.6-0.8c-0.8,0.4-1.8,0.6-2.7,0.9c-1,0.3-1.2-0.1-1-1c0.2-0.9,0.4-1.9,0.8-2.7
	c0.8-1.5,0-2.4-1-3.4c-1.3-1.3-2.6-2.6-4-4c-0.2-0.2-0.3-0.4-0.5-0.7C140.3,97,140.4,96.8,140.4,96.8z"/>
<path class="st2" d="M140.6,96.8c0,0-0.1,0-0.1,0c0,0,0,0.1-0.1,0.1c0,0.1-0.1,0.1-0.1,0.2c0,0,0,0,0,0.1c0,0,0.1,0.1,0.1,0.1
	c0.1,0.2,0.2,0.3,0.4,0.5c1,1,2,2,3,3c0,0,0,0,0,0c0.3,0.3,0.6,0.6,1,1c0.5,0.4,0.9,0.9,1.1,1.3c0.2,0.5,0.3,1,0.1,1.6
	c0,0.1-0.1,0.2-0.1,0.3c0,0,0,0.1-0.1,0.2c-0.2,0.5-0.4,1-0.5,1.5c0,0,0,0.1,0,0.1c-0.1,0.3-0.1,0.6-0.2,0.8c0,0.1,0,0.2-0.1,0.3
	c-0.2,0.8,0.1,1.3,1,1c0.3-0.1,0.7-0.2,1-0.3c0.1,0,0.2-0.1,0.3-0.1c0,0,0.1,0,0.1,0c0.4-0.1,0.8-0.3,1.2-0.5c0.1,0,0.1-0.1,0.2-0.1
	c0.1,0,0.1-0.1,0.2-0.1c0.8-0.3,1.5-0.2,2.2,0.2c0.3,0.2,0.7,0.4,1,0.7c0.1,0,0.1,0.1,0.2,0.1c0,0,0,0,0,0c1,0.9,2.1,1.7,3.2,2.5
	c0.1,0.1,0.3,0.2,0.4,0.3c0,0,0,0,0,0c0.2,0.1,0.3,0.2,0.5,0.3c0.2,0.1,0.4,0.2,0.7,0.4c0.2,0.1,0.4,0.2,0.6,0.3
	c-0.2-0.4-0.3-0.8-0.5-1c-0.1-0.2-0.1-0.3-0.2-0.5c0,0,0,0,0,0c0,0,0,0,0,0c-0.3-0.6-0.6-1.2-0.9-1.8c-0.3-0.6-0.6-1.2-0.9-1.9
	c-0.2-0.4-0.3-0.8-0.2-1.1c0-0.1,0.1-0.2,0.1-0.3c0.1-0.1,0.2-0.2,0.3-0.2c0,0,0,0,0,0c0.1-0.1,0.3-0.1,0.5-0.2
	c0.5-0.2,0.9-0.3,1.4-0.5c0.3-0.1,0.5-0.2,0.8-0.3c0.4-0.1,0.7-0.3,1.1-0.5c0.3-0.1,0.6-0.3,0.9-0.4c0.1,0,0.1,0,0.2-0.1
	c0-0.1,0-0.1,0-0.2c0-0.1,0-0.1,0-0.2c0,0-0.1,0-0.1,0c-0.4-0.1-0.8-0.2-1.2-0.3c-0.5-0.1-1-0.2-1.5-0.3c-0.4-0.1-0.8-0.2-1.2-0.2
	c-0.4-0.1-0.8-0.2-1.2-0.3c0,0,0,0,0,0c-0.2-0.1-0.4-0.1-0.7-0.2c-1.1-0.5-2-1.2-2.5-2.4c-0.1-0.2-0.2-0.5-0.3-0.7
	c-0.1-0.4-0.2-0.8-0.4-1.2c0,0,0,0,0,0c-0.2-0.6-0.5-1.2-0.8-1.8c-0.2-0.4-0.3-0.8-0.5-1.2c0,0,0-0.1-0.1-0.1c-0.1,0-0.3,0-0.5,0
	c0,0.1-0.1,0.2-0.1,0.2c-0.1,0.3-0.2,0.6-0.3,0.9c-0.1,0.4-0.3,0.8-0.4,1.2c-0.4,1.2-0.6,1.8-0.9,2.2c-0.1,0.1-0.1,0.1-0.2,0.2
	c0,0,0,0-0.1,0c0,0,0,0,0,0c0,0,0,0,0,0c-0.5,0.2-1.2-0.1-2.6-0.7c-0.8-0.3-1.6-0.6-2.5-0.9c-0.3-0.1-0.6-0.2-0.9-0.3c0,0,0,0,0,0
	C141.1,97,140.8,96.9,140.6,96.8z"/>
<path class="st1" d="M124.3,102.4c0.5,1.5,1.1,3.1,1.6,4.6c0.4,1.4,1.2,2.2,2.6,2.6c1.4,0.4,2.7,0.9,4,1.3c0.3,0.1,0.6,0.3,1.3,0.6
	c-1.6,0.6-2.8,1-4,1.5c-1.4,0.5-1.6,0.9-1.1,2.3c0.5,1.3,0.9,2.5,1.4,3.8c0.1,0.3,0.2,0.7,0.3,1c-0.1,0.1-0.2,0.1-0.3,0.2
	c-1.1-1-2.3-2-3.4-3c-2.4-2.2-2.4-2.3-5.4-0.9c-0.8,0.4-1.7,0.8-2.5,1.1c-0.1-0.1-0.3-0.2-0.4-0.3c0.4-1.3,0.8-2.7,1.3-3.9
	c0.7-1.4,0.3-2.4-0.8-3.5c-1.4-1.3-2.7-2.6-4-4c0.1-0.1,0.1-0.3,0.2-0.4c0.7,0.1,1.3,0.3,2,0.4c1,0.3,2,0.6,3,1
	c1.7,0.6,1.9,0.4,2.5-1.2c0.4-1.1,0.8-2.2,1.3-3.3C124,102.3,124.1,102.4,124.3,102.4z"/>
<path class="st2" d="M128,109.4c-0.9-0.4-1.5-1-1.9-1.8c-0.1-0.2-0.1-0.4-0.2-0.6c0,0,0-0.1,0-0.1c0,0,0-0.1,0-0.1
	c-0.3-0.9-0.6-1.9-0.9-2.8c-0.2-0.5-0.3-1-0.5-1.4c0-0.1,0-0.1-0.1-0.2c-0.2,0-0.3,0-0.5-0.1v0c0,0.1-0.1,0.2-0.1,0.3
	c-0.4,1-0.8,2-1.2,3.1c-0.3,0.7-0.4,1.2-0.7,1.4c0,0-0.1,0-0.1,0c-0.1,0-0.2,0.1-0.3,0.1c0,0,0,0,0,0c-0.3,0-0.7-0.1-1.3-0.3
	c-0.3-0.1-0.7-0.2-1-0.3c-0.7-0.2-1.3-0.4-2-0.6c-0.4-0.1-0.9-0.2-1.3-0.3c-0.2,0-0.3-0.1-0.5-0.1c0,0-0.1,0-0.1,0
	c0,0.1-0.1,0.1-0.1,0.2c0,0.1-0.1,0.1-0.1,0.2c0,0,0.1,0.1,0.1,0.1c0.3,0.3,0.6,0.6,0.9,0.9c0.2,0.2,0.5,0.5,0.7,0.7c0,0,0,0,0,0
	c0.7,0.8,1.5,1.5,2.3,2.2c0,0,0.1,0.1,0.1,0.1c0,0,0,0,0,0c0.3,0.3,0.6,0.7,0.7,1c0.2,0.5,0.3,1.1,0.1,1.7c0,0.1-0.1,0.3-0.2,0.4
	c0,0,0,0,0,0c0,0.1-0.1,0.1-0.1,0.2c-0.4,0.9-0.7,1.8-1,2.7c-0.1,0.3-0.2,0.6-0.3,0.9c0,0.1-0.1,0.2-0.1,0.3
	c0.1,0.1,0.1,0.1,0.2,0.2c0.1,0.1,0.1,0.1,0.2,0.2c0.1,0,0.2-0.1,0.3-0.1c0.8-0.3,1.5-0.7,2.3-1c0.7-0.3,1.3-0.6,1.8-0.7
	c0.7-0.2,1.2-0.2,1.7,0c0.3,0.2,0.6,0.4,1,0.7c0,0,0,0,0,0c0.3,0.2,0.5,0.5,0.9,0.8c0,0,0.1,0.1,0.1,0.1c0.7,0.6,1.4,1.2,2.1,1.8
	c0.1,0.1,0.2,0.2,0.3,0.3c0,0,0,0,0,0c0.3,0.3,0.6,0.5,0.9,0.8c0,0,0.1,0.1,0.1,0.1c0,0,0.1-0.1,0.1-0.1c0.1,0,0.1-0.1,0.1-0.1
	c0,0,0,0,0-0.1c0-0.1,0-0.2-0.1-0.3c-0.1-0.2-0.1-0.5-0.2-0.7c-0.4-1.3-0.9-2.5-1.4-3.8c0,0,0-0.1,0-0.1c0,0,0,0,0,0
	c-0.2-0.6-0.3-1-0.1-1.3c0,0,0-0.1,0.1-0.1c0.2-0.3,0.6-0.5,1.2-0.7l0,0c0.7-0.3,1.4-0.5,2.2-0.8c0,0,0,0,0,0
	c0.5-0.2,1.1-0.4,1.7-0.6c-0.2-0.1-0.4-0.2-0.5-0.3c-0.3-0.2-0.6-0.3-0.8-0.4c-0.2-0.1-0.5-0.2-0.8-0.3c-1-0.4-2-0.7-3.1-1
	c0,0,0,0-0.1,0c-0.1,0-0.1,0-0.2,0C128.3,109.5,128.1,109.5,128,109.4z"/>
<path class="st1" d="M174.4,94.6c-1.5-0.9-3.1-1.7-4.5-2.6c-1-0.6-1.8-0.6-2.8-0.1c-1.2,0.6-2.4,1-3.6,1.6c-0.1-0.1-0.2-0.2-0.3-0.3
	c0.3-1.1,0.6-2.3,1.1-3.3c0.5-1.1,0.1-1.7-0.7-2.3c-1.4-1.2-2.7-2.3-4.1-3.5c0.1-0.1,0.1-0.3,0.2-0.4c1.1,0.2,2.2,0.4,3.3,0.6
	c0.5,0.1,1,0.1,1.5,0.3c1.1,0.3,1.7-0.1,2.1-1.2c0.3-1,0.6-2,1-2.9c0.1-0.4,0.3-0.7,0.5-1.1c0.1,0,0.2,0,0.3,0
	c0.5,1.3,1.2,2.6,1.5,3.9c0.5,1.7,1.5,2.3,3.1,2.3c1.2,0,2.4-0.1,3.6-0.1c0.3,0,0.7,0,1,0.1c0.1,0.1,0.1,0.3,0.1,0.4
	c-1,0.7-1.9,1.4-3,2.1c-2.5,1.6-2.5,1.5-1.2,4.2c0.4,0.8,0.8,1.5,1.1,2.3C174.7,94.4,174.6,94.5,174.4,94.6z"/>
<path class="st2" d="M167.9,91.6c0.4-0.1,0.8-0.1,1.2,0c0.3,0.1,0.5,0.2,0.8,0.4c0.5,0.3,1.1,0.7,1.6,1c0,0,0,0,0,0
	c0.5,0.3,1,0.6,1.5,0.9c0.4,0.2,0.8,0.4,1.1,0.6c0.1,0,0.2,0.1,0.2,0.1c0.1-0.1,0.2-0.2,0.3-0.4l-1.1-2.3c-0.6-1.3-1-1.9-0.8-2.5
	c0,0,0-0.1,0-0.1c0-0.1,0.1-0.1,0.1-0.2c0-0.1,0.1-0.1,0.1-0.2c0,0,0,0,0,0c0.3-0.3,0.9-0.7,1.7-1.2c0.6-0.4,1.2-0.8,1.8-1.2
	c0,0,0,0,0,0c0.1-0.1,0.3-0.2,0.4-0.3c0.2-0.1,0.4-0.3,0.6-0.4c0.1,0,0.1-0.1,0.2-0.1c0-0.1-0.1-0.1-0.1-0.2c0-0.1,0-0.1-0.1-0.2
	c0,0-0.1,0-0.1,0c-0.3,0-0.6,0-0.9,0c-0.6,0-1.2,0-1.8,0c-0.5,0-1,0-1.5,0c0,0,0,0,0,0c-0.1,0-0.2,0-0.3,0c-0.6,0-1.1-0.1-1.5-0.2
	c-0.4-0.2-0.8-0.4-1.1-0.9c-0.2-0.3-0.4-0.7-0.5-1.2c-0.2-0.7-0.5-1.4-0.8-2.1c0,0,0,0,0,0c-0.1-0.2-0.2-0.4-0.3-0.6
	c-0.1-0.3-0.2-0.6-0.4-0.8c0-0.1-0.1-0.2-0.1-0.2c-0.1,0-0.2,0-0.3,0c0,0,0,0.1-0.1,0.1c0,0,0,0.1-0.1,0.1c-0.1,0.3-0.3,0.5-0.4,0.8
	c-0.3,1-0.7,1.9-1,2.9c-0.1,0.3-0.2,0.6-0.4,0.8c0,0,0,0,0,0c0,0,0,0-0.1,0.1c0,0,0,0,0,0c-0.4,0.3-0.9,0.4-1.5,0.2
	c-0.4-0.1-0.8-0.2-1.2-0.3c-0.1,0-0.2,0-0.3,0c-1.1-0.2-2.1-0.4-3.2-0.6c-0.1,0-0.1,0-0.2,0c0,0.1-0.1,0.1-0.1,0.2
	c0,0.1-0.1,0.1-0.1,0.2c0,0,0.1,0,0.1,0.1c1,0.8,1.9,1.7,2.9,2.5c0,0,0.1,0.1,0.1,0.1c0.3,0.3,0.6,0.5,0.9,0.8c0,0,0.1,0,0.1,0.1
	c0,0,0,0,0,0c0.4,0.3,0.7,0.7,0.9,1.1c0,0,0,0.1,0,0.1c0.1,0.3,0,0.7-0.2,1.1c-0.4,0.8-0.6,1.6-0.8,2.4c-0.1,0.2-0.1,0.4-0.2,0.7
	c0,0.1,0,0.2-0.1,0.2l0.3,0.3c0.1,0,0.2-0.1,0.3-0.1c0.3-0.1,0.6-0.3,0.9-0.4c0.8-0.3,1.6-0.7,2.4-1.1
	C167.4,91.7,167.6,91.6,167.9,91.6z"/>
<path class="st1" d="M137.9,31.5c0.6,1.6,1.1,3.2,1.6,4.8c0.4,1.4,1.3,2.2,2.7,2.5c1.5,0.3,3,0.9,4.5,1.3c0,0.1,0,0.3,0.1,0.4
	c-1,0.4-2.1,0.9-3.1,1.3c-2,0.8-2,0.8-1.4,2.8c0.4,1.4,0.8,2.8,1.2,4.2c-0.1,0.1-0.2,0.1-0.3,0.2c-1.1-1.1-2.3-2.1-3.3-3.3
	c-1.2-1.5-2.6-1.8-4.3-1c-0.8,0.4-1.6,0.6-2.4,0.8c-0.1-0.1-0.2-0.1-0.3-0.2c0.2-0.8,0.4-1.7,0.8-2.4c0.8-1.7,0.6-3-1-4.2
	c-1.3-1-2.4-2.1-3.9-3.4c0.6,0,0.9-0.1,1.2,0c1.4,0.4,2.7,0.8,4.1,1.2c1.1,0.3,1.8,0.1,2.1-1.1c0.3-1.3,0.8-2.5,1.3-3.7
	C137.5,31.5,137.7,31.5,137.9,31.5z"/>
<path class="st2" d="M141.2,38.4c-0.7-0.3-1.1-0.8-1.5-1.4c-0.1-0.2-0.2-0.5-0.3-0.7c0-0.1,0-0.1-0.1-0.2c-0.3-1.2-0.7-2.3-1.1-3.4
	c-0.1-0.3-0.2-0.6-0.3-0.9c0-0.1-0.1-0.2-0.1-0.2c-0.1,0-0.3,0-0.5,0c0,0.1,0,0.1-0.1,0.2c-0.1,0.3-0.2,0.6-0.3,0.9
	c-0.3,0.9-0.7,1.8-0.9,2.7c-0.1,0.4-0.2,0.6-0.4,0.8c-0.1,0.1-0.2,0.3-0.4,0.3c-0.3,0.1-0.7,0.1-1.1,0c0,0,0,0,0,0
	c-0.1,0-0.2,0-0.2-0.1c-1.4-0.4-2.7-0.8-4.1-1.2c-0.2,0-0.3,0-0.6,0c-0.2,0-0.4,0-0.6,0c0.3,0.3,0.6,0.6,1,0.9c0,0,0,0,0,0
	c0.2,0.2,0.3,0.3,0.5,0.5c0.8,0.8,1.6,1.5,2.4,2.1c0.2,0.2,0.4,0.4,0.6,0.5c0,0,0,0,0,0c0.4,0.4,0.6,0.8,0.7,1.3
	c0,0.2,0.1,0.3,0.1,0.5c0,0.2,0,0.3,0,0.5c0,0,0,0,0,0c-0.1,0.4-0.2,0.8-0.4,1.3c-0.3,0.5-0.4,1.1-0.6,1.7c0,0.1,0,0.2-0.1,0.2
	c0,0.2-0.1,0.3-0.1,0.5c0.1,0,0.1,0.1,0.2,0.1c0.1,0,0.1,0.1,0.2,0.1c0.1,0,0.1,0,0.2-0.1c0.2-0.1,0.4-0.1,0.6-0.2
	c0.6-0.2,1.1-0.3,1.6-0.6c0.3-0.2,0.7-0.3,1-0.4c0,0,0,0,0.1,0c0.2-0.1,0.5-0.1,0.7-0.1c0.3,0,0.5,0,0.7,0.1c0.5,0.2,1.1,0.5,1.5,1
	c0,0,0,0,0,0c0.1,0.1,0.2,0.2,0.3,0.3c0.7,0.9,1.5,1.7,2.4,2.4c0.3,0.3,0.5,0.5,0.8,0.8c0,0,0.1,0.1,0.1,0.1c0.1,0,0.1-0.1,0.2-0.1
	c0.1,0,0.1-0.1,0.2-0.1c0,0,0-0.1,0-0.1c-0.2-0.7-0.4-1.3-0.6-2c-0.2-0.7-0.4-1.4-0.6-2.1c-0.1-0.3-0.1-0.5-0.2-0.7c0,0,0,0,0,0
	c-0.1-0.5-0.2-0.8-0.1-1.1c0,0,0-0.1,0-0.1c0.1-0.1,0.2-0.2,0.3-0.3c0.3-0.2,0.7-0.4,1.4-0.6c0.7-0.3,1.5-0.6,2.2-0.9
	c0.2-0.1,0.5-0.2,0.7-0.3c0.1,0,0.1-0.1,0.2-0.1c0-0.1,0-0.1,0-0.2c0-0.1,0-0.1,0-0.2c0,0-0.1,0-0.1,0c-0.5-0.1-0.9-0.3-1.4-0.4
	c-0.9-0.3-1.7-0.5-2.6-0.8c0,0-0.1,0-0.1,0c-0.1,0-0.2-0.1-0.3-0.1C141.8,38.6,141.5,38.5,141.2,38.4z"/>
<path class="st1" d="M192.1,58.5c-0.3,0.3-0.5,0.8-0.8,1.1c-1.1,1.2-2.3,2.3-3.5,3.5c-0.7,0.7-1.1,1.5-0.5,2.6
	c0.4,0.8,0.7,1.7,1,2.5c0.1,0.3,0.2,0.8,0.1,0.8c-0.3,0.1-0.6,0.2-0.9,0.1c-1-0.2-1.9-0.5-2.9-0.8c-1.1-0.4-2-0.2-2.8,0.6
	c-0.9,0.9-1.9,1.7-2.9,2.6c-0.3,0.3-0.7,0.6-1.1,0.8c-0.1-0.1-0.2-0.1-0.3-0.2c0.3-0.9,0.6-1.9,1-2.8c1.1-2.8,1.1-2.8-1.5-4.3
	c-0.7-0.4-1.4-0.8-2.4-1.4c0.6-0.3,0.9-0.5,1.3-0.6c1-0.2,2.1-0.3,3.2-0.6c1.2-0.2,2.2-0.8,2.6-2.1c0.4-1.3,0.9-2.5,1.3-3.8
	c0.1-0.4,0.3-0.8,0.5-1.1c0.1,0,0.3,0,0.4,0c0.4,1.1,0.7,2.2,1.1,3.3c0.6,1.8,0.6,1.8,2.4,1.2c1.5-0.5,3-1.1,4.6-1.7
	C191.9,58.3,192,58.4,192.1,58.5z"/>
<path class="st1" d="M160.4,41.1c1.4,0,2.8,0,4.3,0c0.9,0,1.4-0.4,1.7-1.3c0.3-1.5,0.8-2.9,1.2-4.4c0.1-0.3,0.2-0.5,0.5-1.1
	c0.6,1.7,1,3,1.5,4.3c0.6,1.8,0.8,1.9,2.7,1.9c1.3,0,2.6-0.2,3.9-0.3c0.1,0.1,0.1,0.3,0.2,0.4c-0.6,0.5-1.1,0.9-1.7,1.3
	c-3.5,2.5-3.3,1.9-1.8,5.7c0.3,0.7,0.5,1.3,0.7,2c-0.1,0.1-0.2,0.2-0.3,0.3c-1.1-0.6-2.3-1.2-3.4-1.9c-1-0.6-1.8-0.7-2.7,0.1
	c-1,0.9-2.1,1.7-3.2,2.6c-0.1-0.1-0.3-0.1-0.4-0.2c0.2-1,0.4-2.1,0.7-3.1c0.6-2.3,0.6-2.2-1.2-3.6c-1-0.8-1.9-1.6-2.9-2.5
	C160.2,41.3,160.3,41.2,160.4,41.1z"/>
<path class="st2" d="M160.4,41.1c0,0.1-0.1,0.1-0.1,0.2c0,0.1-0.1,0.1-0.1,0.2c0.1,0.1,0.1,0.1,0.2,0.2c0.2,0.1,0.3,0.3,0.5,0.4
	c0.7,0.6,1.4,1.3,2.2,1.8c0,0,0.1,0,0.1,0.1c0.6,0.5,1,0.8,1.2,1.1c0,0,0.1,0.1,0.1,0.1c0,0.1,0.1,0.1,0.1,0.2c0,0,0,0,0,0.1
	c0.1,0.4-0.1,1-0.3,2c-0.2,0.8-0.4,1.6-0.6,2.4c0,0.2-0.1,0.4-0.1,0.6c0,0.1,0,0.1,0,0.2c0.1,0.1,0.2,0.1,0.3,0.2c0,0,0.1,0,0.1,0
	c0,0,0.1-0.1,0.1-0.1c0.4-0.3,0.8-0.6,1.2-0.9c0.6-0.5,1.3-1,1.9-1.5c0,0,0,0,0,0c0,0,0,0,0,0c0.4-0.4,0.9-0.6,1.3-0.6
	c0,0,0.1,0,0.1,0c0.4,0,0.8,0.2,1.3,0.5c0.2,0.1,0.5,0.3,0.7,0.4c0,0,0,0,0,0c0.5,0.3,1.1,0.6,1.7,0.9c0.3,0.1,0.5,0.3,0.8,0.4
	c0.1,0,0.1,0.1,0.2,0.1l0.3-0.3c0-0.1,0-0.1-0.1-0.2c-0.1-0.2-0.1-0.3-0.2-0.5c-0.1-0.4-0.3-0.9-0.5-1.3c-0.6-1.5-0.9-2.3-1-2.8
	c0,0,0,0,0,0c0-0.1,0-0.1,0-0.2c0-0.1,0-0.1,0-0.2c0,0,0-0.1,0-0.1c0.1-0.2,0.2-0.4,0.4-0.6c0,0,0,0,0,0c0.4-0.4,1.2-0.9,2.3-1.7
	c0.5-0.3,0.9-0.7,1.3-1c0.1-0.1,0.1-0.1,0.2-0.2c0.1,0,0.1-0.1,0.2-0.1c0-0.1-0.1-0.1-0.1-0.2c0-0.1-0.1-0.1-0.1-0.2
	c0,0-0.1,0-0.1,0c-0.4,0-0.8,0.1-1.2,0.1c-0.4,0-0.9,0.1-1.3,0.1c0,0,0,0,0,0c-0.4,0-0.8,0-1.3,0.1c-0.9,0-1.5,0-1.8-0.3
	c0,0,0,0-0.1,0c-0.3-0.3-0.5-0.7-0.8-1.6c-0.3-0.8-0.5-1.5-0.8-2.4c-0.1-0.2-0.1-0.3-0.2-0.5c0,0,0,0,0-0.1
	c-0.1-0.4-0.3-0.9-0.5-1.4c-0.1,0.3-0.2,0.5-0.3,0.6c-0.1,0.2-0.2,0.4-0.2,0.5c-0.1,0.4-0.2,0.7-0.3,1.1c-0.3,1-0.6,2.1-0.8,3.1
	c0,0,0,0.1,0,0.1c0,0,0,0,0,0.1c-0.1,0.4-0.2,0.6-0.4,0.8c-0.1,0.1-0.2,0.2-0.3,0.2c-0.1,0.1-0.2,0.1-0.3,0.2c0,0,0,0,0,0
	c-0.2,0.1-0.4,0.1-0.6,0.1H160.4z"/>
<path class="st1" d="M199.9,30.9c0.3,1,0.7,1.9,0.9,2.9c0.3,1,0.8,1.4,1.9,1c1.5-0.6,3-1,4.5-1.5c0.1,0.1,0.1,0.2,0.2,0.4
	c-0.6,0.5-1.1,1-1.6,1.5c-0.4,0.4-0.9,0.8-1.3,1.3c-2,1.9-2,1.9-0.8,4.4c0.2,0.4,0.3,0.9,0.6,1.7c-1.5-0.2-2.9-0.3-4.1-0.6
	c-1-0.3-1.8,0.1-2.4,0.8c-1.1,1-2.2,2-3.3,3c-0.4,0.3-0.8,0.6-1.2,0.9c-0.1-0.1-0.2-0.1-0.3-0.2c0.5-1.2,1-2.4,1.5-3.6
	c0.7-1.7,0.6-1.9-1.2-2.6c-0.8-0.3-1.7-0.7-2.5-1c-0.1,0-0.1-0.1-0.1-0.4c0.9-0.3,1.8-0.8,2.7-0.9c2.5-0.4,4.3-1.6,4.9-4.2
	c0.2-0.9,0.8-1.8,1.1-2.6C199.7,30.9,199.8,30.9,199.9,30.9z"/>
<path class="st2" d="M200,31.2c0-0.1-0.1-0.2-0.1-0.3c-0.1,0-0.3,0-0.5,0.1c0,0,0,0.1-0.1,0.1c-0.1,0.2-0.2,0.5-0.4,0.7
	c-0.3,0.6-0.6,1.2-0.7,1.8c-0.1,0.4-0.2,0.7-0.3,1c0,0,0,0,0,0c-0.2,0.5-0.4,0.8-0.7,1.2c-0.4,0.5-0.8,0.8-1.3,1.1
	c-0.5,0.3-1,0.5-1.5,0.7c-0.1,0-0.1,0-0.2,0.1c0,0,0,0,0,0c-0.3,0.1-0.5,0.1-0.8,0.2c-0.7,0.1-1.3,0.4-2,0.6c-0.1,0-0.2,0.1-0.3,0.1
	c0,0-0.1,0-0.1,0c-0.1,0-0.2,0.1-0.4,0.1c0,0.1,0.1,0.2,0.1,0.2c0,0.1,0,0.2,0.1,0.2c0,0,0,0,0,0c0.3,0.1,0.7,0.3,1,0.4
	c0.5,0.2,1,0.4,1.5,0.6c0.2,0.1,0.3,0.1,0.4,0.2c0,0,0,0,0.1,0c0.1,0,0.2,0.1,0.3,0.1c0.6,0.3,0.8,0.6,0.7,1.1
	c-0.1,0.3-0.2,0.6-0.4,1.1c-0.2,0.6-0.5,1.2-0.8,1.8c0,0.1,0,0.1-0.1,0.2c0,0,0,0,0,0.1c-0.2,0.5-0.4,1-0.6,1.5c0,0,0,0.1,0,0.1
	c0.1,0,0.1,0.1,0.2,0.1c0,0,0.1,0.1,0.1,0.1c0,0,0,0,0.1-0.1c0.1-0.1,0.3-0.2,0.4-0.3c0.2-0.2,0.5-0.3,0.7-0.5
	c0.4-0.3,0.7-0.7,1.1-1c0.4-0.3,0.7-0.7,1.1-1c0,0,0,0,0,0c0.3-0.3,0.7-0.6,1-0.9c0.4-0.3,0.7-0.6,1.1-0.7c0.3-0.1,0.5-0.1,0.8-0.1
	c0.1,0,0.3,0,0.5,0.1c0.3,0.1,0.5,0.1,0.8,0.2c0,0,0,0,0.1,0c0.6,0.1,1.1,0.2,1.8,0.2c0.5,0,1,0.1,1.5,0.2c-0.1-0.3-0.2-0.5-0.3-0.8
	c-0.1-0.3-0.2-0.6-0.3-0.9c0,0,0,0,0-0.1c-0.4-0.8-0.7-1.4-0.8-1.8c-0.1-0.2-0.1-0.4,0-0.6c0.1-0.3,0.3-0.7,0.8-1.1c0,0,0,0,0,0
	c0.2-0.2,0.5-0.5,0.8-0.8c0.3-0.3,0.6-0.6,0.9-0.8c0.1-0.1,0.3-0.3,0.4-0.4c0.4-0.3,0.7-0.6,1.1-1c0.1-0.1,0.3-0.3,0.4-0.4
	c0,0,0.1,0,0.1-0.1c0,0,0-0.1-0.1-0.1c-0.1-0.1-0.1-0.2-0.2-0.3c0,0-0.1,0-0.1,0c-0.5,0.2-1,0.3-1.5,0.5c-0.3,0.1-0.5,0.2-0.8,0.2
	c0,0-0.1,0-0.1,0c-0.6,0.2-1.2,0.4-1.8,0.6c0,0,0,0,0,0c-0.1,0-0.1,0.1-0.2,0.1c-0.2,0.1-0.5,0.2-0.6,0.2c-0.4,0-0.7-0.1-0.9-0.4
	c-0.1-0.1-0.1-0.2-0.2-0.4c0,0,0,0,0,0c0,0,0,0,0,0c0-0.1-0.1-0.2-0.1-0.3c0-0.1,0-0.1-0.1-0.2c-0.2-0.7-0.5-1.5-0.7-2.2
	C200.1,31.3,200.1,31.3,200,31.2z"/>
<g>
	<path class="st3" d="M22.4,198.2l-0.3-4.9c-0.5,0.3-1,0.5-1.5,0.7c-0.5,0.2-1.1,0.3-1.7,0.4c-0.6,0.1-1.1,0.1-1.7,0.1
		c-1.2,0-2.3-0.2-3.2-0.5c-0.9-0.4-1.6-0.9-2.2-1.7c-0.4-0.5-0.6-1.1-0.7-1.8h2.2c0.9,0,1.7,0,2.4,0c0.7,0,1.4,0,2,0
		c0.6,0,1.3,0,1.9,0v-3.6c-0.9,0-1.8,0-2.8,0c-1,0-2.1,0-3.5,0h-2.3c0.1-0.7,0.3-1.3,0.6-1.7c0.4-0.7,1-1.2,1.8-1.6
		c0.8-0.4,1.8-0.5,2.9-0.5c0.4,0,0.9,0,1.5,0.1c0.6,0.1,1.2,0.2,1.9,0.4c0.7,0.2,1.4,0.5,2.2,0.8l0.5-4.8c-0.6-0.3-1.2-0.5-2-0.7
		c-0.8-0.2-1.6-0.4-2.4-0.5c-0.8-0.1-1.6-0.2-2.4-0.2c-2.3,0-4.3,0.5-5.9,1.4c-1.6,0.9-2.8,2.2-3.6,3.8c-0.8,1.6-1.2,3.4-1.2,5.5
		c0,2.1,0.4,3.9,1.3,5.5c0.9,1.6,2.1,2.8,3.8,3.7c1.7,0.9,3.7,1.3,6.1,1.3c0.9,0,1.8,0,2.5-0.1c0.8-0.1,1.4-0.2,2.1-0.4
		C21.4,198.6,22,198.4,22.4,198.2z"/>
	<path class="st3" d="M44,196.2c0.5-0.9,0.8-1.9,0.8-3c0-1.1-0.2-1.9-0.5-2.6c-0.4-0.7-0.8-1.2-1.4-1.5c-0.6-0.4-1.2-0.6-1.8-0.8
		v-0.4c0.9-0.3,1.7-0.8,2.3-1.5c0.7-0.7,1-1.7,1-3c0-0.9-0.2-1.7-0.7-2.4c-0.4-0.7-1.2-1.3-2.3-1.7c-1.1-0.4-2.5-0.6-4.3-0.6
		c-1.9,0-3.8,0-5.7,0c-1.9,0-3.6,0-5.1,0c0,1,0,1.9,0,2.8c0,0.9,0,1.9,0,3c0,1.1,0,2.2,0,3.6v2c0,1.7,0,3.2,0,4.6c0,1.4,0,2.8,0,4.2
		c1.2,0,2.7,0,4.4,0c1.7,0,3.5,0,5.5,0c2.3,0,4-0.2,5.3-0.7C42.6,197.7,43.5,197,44,196.2z M32.1,182.9h3.5c0.9,0,1.5,0.2,2,0.5
		s0.7,0.8,0.7,1.5c0,0.4-0.1,0.8-0.3,1.2c-0.2,0.3-0.5,0.5-1,0.7c-0.4,0.2-1,0.2-1.7,0.2h-3.2c0-0.5,0-1.1,0-1.5
		C32.1,184.6,32.1,183.7,32.1,182.9z M38.4,193.7c-0.2,0.3-0.6,0.5-1.1,0.7c-0.5,0.1-1.1,0.2-2,0.2h-3.3c0-0.8,0-1.5,0-2.2
		c0-0.6,0-1.3,0-2h3.5c1.1,0,1.9,0.2,2.4,0.5c0.5,0.4,0.8,0.9,0.8,1.6C38.7,193,38.6,193.4,38.4,193.7z"/>
	<path class="st3" d="M54.6,202.5c0-1.3,0-2.7,0-4.2v-1.5h0.4c0.4,0.6,0.9,1.1,1.5,1.5c0.5,0.4,1.1,0.7,1.8,0.9
		c0.7,0.2,1.4,0.3,2.3,0.3c1.8,0,3.4-0.5,4.6-1.5c1.2-1,2.1-2.3,2.7-3.9c0.6-1.6,0.9-3.4,0.9-5.2c0-2-0.3-3.8-0.9-5.4
		c-0.6-1.6-1.5-2.9-2.8-3.8c-1.2-0.9-2.7-1.4-4.5-1.4c-0.9,0-1.7,0.1-2.4,0.4c-0.7,0.2-1.4,0.6-2,1c-0.6,0.4-1.1,1-1.5,1.6H54
		l-0.2-2.8l-5.4,0.3c0,1.6,0,3.2,0,4.7s0,3.1,0,4.7v9.8c0,1.7,0,3.2,0,4.6c0,1.4,0,2.8,0,4.3l6.1-0.2
		C54.6,205.2,54.6,203.8,54.6,202.5z M54.6,185.1c0.3-0.4,0.6-0.7,1-1c0.4-0.3,0.8-0.5,1.2-0.6c0.4-0.1,0.9-0.2,1.4-0.2
		c1,0,1.8,0.2,2.4,0.7c0.6,0.5,1.1,1.2,1.4,2c0.3,0.8,0.5,1.7,0.5,2.7c0,0.9-0.1,1.8-0.4,2.7c-0.3,0.8-0.8,1.5-1.4,2
		c-0.6,0.5-1.4,0.8-2.4,0.8c-0.6,0-1.1-0.1-1.5-0.3c-0.4-0.2-0.8-0.5-1.2-0.8c-0.3-0.3-0.6-0.7-0.9-1.2V185.1z"/>
	<path class="st3" d="M74.1,196.2c0.9,1,2,1.8,3.4,2.4c1.4,0.6,3,0.9,4.8,0.9c2.3,0,4.2-0.5,5.8-1.4c1.6-0.9,2.8-2.2,3.6-3.8
		c0.8-1.6,1.2-3.4,1.2-5.5c0-1.5-0.2-2.9-0.7-4.1c-0.4-1.3-1.1-2.4-2-3.4c-0.9-1-2-1.7-3.4-2.2c-1.3-0.5-2.9-0.8-4.7-0.8
		c-2.3,0-4.3,0.5-5.9,1.4c-1.6,0.9-2.8,2.2-3.6,3.8c-0.8,1.6-1.2,3.4-1.2,5.4c0,1.4,0.2,2.7,0.7,4C72.6,194,73.3,195.2,74.1,196.2z
		 M78.2,185.8c0.4-0.8,0.9-1.5,1.5-2c0.7-0.5,1.5-0.7,2.5-0.7c0.9,0,1.7,0.2,2.4,0.7c0.7,0.4,1.2,1.1,1.6,1.9c0.4,0.8,0.6,1.8,0.6,3
		c0,1-0.2,1.9-0.5,2.8c-0.3,0.9-0.8,1.6-1.5,2.1c-0.7,0.5-1.5,0.8-2.5,0.8c-1,0-1.9-0.3-2.6-0.8c-0.7-0.6-1.2-1.3-1.5-2.1
		c-0.3-0.9-0.5-1.8-0.5-2.8C77.7,187.7,77.9,186.7,78.2,185.8z"/>
	<path class="st3" d="M102.9,194.7c0-1.4,0-2.9,0-4.5v-2c0-1.2,0-2.3,0-3.2c0-0.5,0-1,0-1.5h6.8c0,0.5,0,1,0,1.5c0,0.9,0,2,0,3.2v2
		c0,1.7,0,3.2,0,4.5c0,1.3,0,2.7,0,4.2h6.1c0-1.4,0-2.8,0-4.2c0-1.4,0-2.9,0-4.5v-2c0-1.3,0-2.5,0-3.6c0-1.1,0-2.1,0-3
		c0-0.9,0-1.9,0-2.9H96.8c0,1,0,1.9,0,2.9c0,0.9,0,1.9,0,3c0,1.1,0,2.2,0,3.6v2c0,1.7,0,3.2,0,4.5c0,1.3,0,2.7,0,4.2h6.1
		C102.9,197.4,102.9,196,102.9,194.7z"/>
	<path class="st3" d="M124.3,198c1.7,0.9,3.8,1.4,6.4,1.4c1,0,2-0.1,2.8-0.2c0.9-0.1,1.7-0.3,2.4-0.4c0.7-0.2,1.3-0.4,1.9-0.7
		l-0.2-5.1c-0.6,0.3-1.3,0.6-2.1,0.8c-0.7,0.2-1.5,0.4-2.2,0.5c-0.7,0.1-1.3,0.1-1.9,0.1c-1.4,0-2.5-0.2-3.4-0.7
		c-0.9-0.4-1.6-1.1-2-1.9c-0.3-0.6-0.5-1.3-0.6-2.1H138c0.1-0.4,0.1-0.8,0.1-1.3c0-0.4,0-0.9,0-1.4c0-2-0.4-3.7-1.1-5
		c-0.7-1.3-1.7-2.3-3-3c-1.3-0.7-2.9-1-4.7-1c-2.2,0-4,0.5-5.5,1.4c-1.5,0.9-2.5,2.1-3.3,3.7c-0.7,1.6-1.1,3.4-1.1,5.5
		c0,2.1,0.4,3.9,1.2,5.5C121.4,195.8,122.6,197.1,124.3,198z M127.3,183.1c0.6-0.5,1.3-0.7,2.1-0.7c1,0,1.8,0.4,2.5,1.2
		c0.6,0.7,0.9,1.6,0.9,2.8l-7.3,0.2c0.1-0.6,0.2-1.1,0.4-1.5C126.2,184.1,126.7,183.5,127.3,183.1z"/>
	<path class="st3" d="M151.4,176.4c2.8,0,4.8-0.6,6-1.9c1.3-1.3,1.9-3.1,1.9-5.4h-4.8c0,0.7-0.1,1.4-0.3,2c-0.2,0.6-0.5,1-1,1.3
		c-0.5,0.3-1.1,0.5-1.9,0.5c-1.2,0-2-0.4-2.5-1.1c-0.4-0.7-0.7-1.7-0.7-2.9l-4.8,0.2c0,2.4,0.7,4.2,2,5.4
		C146.6,175.8,148.6,176.4,151.4,176.4z"/>
	<path class="st3" d="M155.1,186.8v3.6c0,1.6,0,3.1,0,4.4s0,2.7,0,4.1h5.8c0-1.4,0-2.8,0-4.2c0-1.4,0-2.9,0-4.5v-2
		c0-1.3,0-2.5,0-3.6c0-1.1,0-2.1,0-3c0-0.9,0-1.9,0-2.9h-6c-0.6,1.1-1.3,2.2-1.9,3.4c-0.6,1.1-1.3,2.3-1.9,3.4l-3,5.3h-0.4v-3.5
		c0-1.2,0-2.3,0-3.3c0-1,0-1.9,0-2.8c0-0.9,0-1.8,0-2.6l-5.8,0.2c0,1,0,1.9,0,2.9c0,0.9,0,1.9,0,3c0,1.1,0,2.2,0,3.6v2
		c0,1.7,0,3.2,0,4.5c0,1.3,0,2.7,0,4.2h6c0.7-1.1,1.3-2.3,1.9-3.4c0.7-1.2,1.3-2.3,2-3.5l2.9-5.2H155.1z"/>
	<path class="st3" d="M180,198.8c0.6-0.2,1.1-0.3,1.6-0.5l-0.3-5.2c-0.4,0.3-0.9,0.5-1.4,0.7c-0.5,0.2-1,0.3-1.5,0.4
		c-0.5,0.1-1,0.1-1.5,0.1c-1.3,0-2.4-0.2-3.3-0.7c-0.9-0.5-1.6-1.2-2-2c-0.4-0.9-0.7-1.9-0.7-3c0-1.6,0.5-2.9,1.4-3.9
		c0.9-1,2.2-1.5,3.7-1.5c0.4,0,0.9,0,1.4,0.1c0.5,0.1,1.1,0.2,1.7,0.4c0.7,0.2,1.4,0.5,2.1,1l0.4-5.2c-0.6-0.3-1.2-0.6-1.9-0.8
		c-0.7-0.2-1.5-0.4-2.3-0.5c-0.8-0.1-1.6-0.2-2.4-0.2c-2.3,0-4.2,0.5-5.8,1.4c-1.5,0.9-2.7,2.2-3.5,3.8c-0.8,1.6-1.2,3.4-1.2,5.5
		c0,2,0.4,3.8,1.3,5.4c0.8,1.6,2.1,2.8,3.7,3.7c1.6,0.9,3.6,1.4,5.9,1.4c0.9,0,1.8,0,2.5-0.1C178.7,199.1,179.4,198.9,180,198.8z"/>
	<path class="st3" d="M202.9,195.3c0.6-1.1,0.8-2.4,0.8-3.9c0-1.7-0.3-3.1-1-4.1c-0.7-1-1.6-1.8-2.9-2.2c-1.3-0.5-2.8-0.7-4.7-0.7
		c-1,0-2,0-3.2,0c-0.2,0-0.4,0-0.6,0c0-0.7,0-1.3,0-2c0-1.3,0-2.6,0-3.9l-6,0.2c0,1,0,1.9,0,2.9c0,0.9,0,1.9,0,3c0,1.1,0,2.2,0,3.6
		v2c0,1.7,0,3.2,0,4.5c0,1.3,0,2.7,0,4.2c1.3,0,2.8,0,4.5,0c1.7,0,3.6,0,5.7,0c2,0,3.6-0.3,4.8-0.9
		C201.5,197.3,202.4,196.4,202.9,195.3z M197.2,193.5c-0.3,0.4-0.8,0.7-1.4,0.9c-0.6,0.2-1.2,0.2-1.9,0.2h-2.5c0-1.4,0-2.7,0-4
		c0-0.6,0-1.3,0-2h3.1c0.4,0,0.8,0,1.2,0.1c0.4,0.1,0.7,0.2,1.1,0.4c0.3,0.2,0.6,0.5,0.7,0.9c0.2,0.4,0.3,0.9,0.3,1.5
		C197.7,192.4,197.5,193,197.2,193.5z"/>
	<path class="st3" d="M224.7,195.2c-1-1.2-2-2.5-3-3.7l-2.4-3.1l2-2.4c1-1.2,1.9-2.4,2.9-3.6c1-1.2,1.9-2.4,2.9-3.6h-7.1
		c-0.6,0.9-1.2,1.7-1.9,2.6c-0.6,0.9-1.2,1.7-1.9,2.6l-2,2.9h-1.1c0-1.4,0-2.7,0-4c0-1.4,0-2.8,0-4.3l-6.1,0.2c0,1,0,1.9,0,2.8
		c0,0.9,0,1.8,0,2.9c0,1,0,2.2,0,3.5v2.3c0,1.7,0,3.2,0,4.5c0,1.3,0,2.7,0,4.2h6.1c0-1.3,0-2.5,0-3.7c0-1.2,0-2.5,0-3.8v-0.5h1
		l2.3,3.1c0.6,0.8,1.2,1.6,1.8,2.4c0.6,0.8,1.2,1.7,1.8,2.5h7.5C226.7,197.6,225.7,196.4,224.7,195.2z"/>
	<path class="st3" d="M237.9,198.9c0.8-0.3,1.4-0.7,2-1.2c0.6-0.5,1-1,1.4-1.5h0.5l0.4,2.7h5.2c0-1.2,0-2.4,0-3.5c0-1.1,0-2.1,0-3.2
		v-1.9c0-0.8,0-1.6,0-2.6c0-1,0-1.8,0-2.4c0-1.7-0.3-3.1-1-4.1c-0.6-1.1-1.6-1.8-2.8-2.3c-1.2-0.5-2.6-0.7-4.3-0.7
		c-0.9,0-1.8,0-2.6,0.1c-0.8,0.1-1.6,0.2-2.4,0.4c-0.8,0.1-1.5,0.3-2.1,0.5c-0.7,0.2-1.2,0.4-1.7,0.5l0.3,5.2
		c0.6-0.3,1.3-0.6,1.9-0.8c0.6-0.2,1.2-0.4,1.8-0.5c0.6-0.1,1.2-0.3,1.7-0.3c0.5-0.1,1-0.1,1.5-0.1c0.9,0,1.6,0.1,2.2,0.3
		c0.6,0.2,1.1,0.5,1.4,0.9c0.3,0.4,0.5,1,0.4,1.8l-5.7,0.9c-0.7,0.1-1.5,0.3-2.3,0.6c-0.8,0.3-1.5,0.6-2.1,1.1
		c-0.6,0.5-1.2,1.1-1.6,1.9c-0.4,0.8-0.6,1.7-0.6,2.9c0,1.2,0.2,2.3,0.7,3.2c0.5,0.9,1.2,1.6,2,2c0.9,0.5,1.9,0.7,3.1,0.7
		C236.3,199.3,237.2,199.2,237.9,198.9z M235.7,191.3c0.2-0.4,0.5-0.7,0.8-0.9c0.4-0.2,0.8-0.4,1.3-0.5c0.9-0.2,1.5-0.3,2-0.4
		c0.5-0.1,0.9-0.2,1.1-0.3c0.3-0.1,0.5-0.2,0.6-0.3v3.1c-0.3,0.6-0.7,1.1-1.1,1.5c-0.4,0.4-0.8,0.7-1.3,1c-0.5,0.2-1,0.3-1.4,0.3
		c-0.6,0-1.1-0.2-1.6-0.5c-0.5-0.3-0.7-0.9-0.7-1.6C235.5,192.1,235.6,191.7,235.7,191.3z"/>
	<path class="st3" d="M11.3,225.9c0.4,0,0.9,0,1.4,0.1c0.5,0.1,1.1,0.2,1.7,0.4c0.7,0.2,1.4,0.5,2.1,1l0.4-5.2
		c-0.6-0.3-1.2-0.6-1.9-0.8c-0.7-0.2-1.5-0.4-2.3-0.5c-0.8-0.1-1.6-0.2-2.4-0.2c-2.3,0-4.2,0.5-5.8,1.4c-1.5,0.9-2.7,2.2-3.5,3.8
		c-0.8,1.6-1.2,3.4-1.2,5.5c0,2,0.4,3.8,1.3,5.4s2.1,2.8,3.7,3.7c1.6,0.9,3.6,1.4,5.9,1.4c0.9,0,1.8,0,2.5-0.1
		c0.7-0.1,1.4-0.2,2-0.4c0.6-0.2,1.1-0.3,1.6-0.5l-0.3-5.2c-0.4,0.3-0.9,0.5-1.4,0.7c-0.5,0.2-1,0.3-1.5,0.4c-0.5,0.1-1,0.1-1.5,0.1
		c-1.3,0-2.4-0.2-3.3-0.7c-0.9-0.5-1.6-1.2-2-2c-0.4-0.9-0.7-1.9-0.7-3c0-1.6,0.5-2.9,1.4-3.9C8.5,226.4,9.7,225.9,11.3,225.9z"/>
	<path class="st3" d="M34.3,221.8c-1.3-0.7-2.9-1-4.7-1c-2.2,0-4,0.5-5.5,1.4c-1.5,0.9-2.5,2.1-3.3,3.7c-0.7,1.6-1.1,3.4-1.1,5.5
		c0,2.1,0.4,3.9,1.2,5.5c0.8,1.6,2,2.9,3.7,3.8c1.7,0.9,3.8,1.4,6.4,1.4c1,0,2-0.1,2.8-0.2c0.9-0.1,1.7-0.3,2.4-0.4
		c0.7-0.2,1.3-0.4,1.9-0.7l-0.2-5.1c-0.6,0.3-1.3,0.6-2.1,0.8c-0.7,0.2-1.5,0.4-2.2,0.5c-0.7,0.1-1.3,0.1-1.9,0.1
		c-1.4,0-2.5-0.2-3.4-0.7c-0.9-0.4-1.6-1.1-2-1.9c-0.3-0.6-0.5-1.3-0.6-2.1h12.5c0.1-0.4,0.1-0.8,0.1-1.3c0-0.4,0-0.9,0-1.4
		c0-2-0.4-3.7-1.1-5C36.6,223.4,35.6,222.4,34.3,221.8z M27.6,225.7c0.6-0.5,1.3-0.7,2.1-0.7c1,0,1.8,0.4,2.5,1.2
		c0.6,0.7,0.9,1.6,0.9,2.8l-7.3,0.2c0.1-0.6,0.2-1.1,0.4-1.5C26.5,226.8,27,226.2,27.6,225.7z"/>
	<path class="st3" d="M58.6,222.2c-1.2-0.9-2.7-1.4-4.5-1.4c-0.9,0-1.7,0.1-2.4,0.4c-0.7,0.2-1.4,0.6-2,1c-0.6,0.4-1.1,1-1.5,1.6
		h-0.5l-0.2-2.8l-5.4,0.3c0,1.6,0,3.2,0,4.7c0,1.6,0,3.1,0,4.7v9.8c0,1.7,0,3.2,0,4.6c0,1.4,0,2.8,0,4.3l6.1-0.2c0-1.4,0-2.8,0-4.2
		c0-1.3,0-2.7,0-4.2v-1.5h0.4c0.4,0.6,0.9,1.1,1.5,1.5c0.5,0.4,1.1,0.7,1.8,0.9c0.7,0.2,1.4,0.3,2.3,0.3c1.8,0,3.4-0.5,4.6-1.5
		c1.2-1,2.1-2.3,2.7-3.9c0.6-1.6,0.9-3.4,0.9-5.2c0-2-0.3-3.8-0.9-5.4C60.7,224.4,59.8,223.1,58.6,222.2z M55.6,234.1
		c-0.3,0.8-0.8,1.5-1.4,2c-0.6,0.5-1.4,0.8-2.4,0.8c-0.6,0-1.1-0.1-1.5-0.3c-0.4-0.2-0.8-0.5-1.2-0.8c-0.3-0.3-0.6-0.7-0.9-1.2v-6.9
		c0.3-0.4,0.6-0.7,1-1c0.4-0.3,0.8-0.5,1.2-0.6c0.4-0.1,0.9-0.2,1.4-0.2c1,0,1.8,0.2,2.4,0.7c0.6,0.5,1.1,1.2,1.4,2
		c0.3,0.8,0.5,1.7,0.5,2.7C56,232.4,55.9,233.3,55.6,234.1z"/>
	<path class="st3" d="M64.3,226.1c1.2,0,2.3,0,3.5,0c0.9,0,1.7,0,2.5,0c0,0.5,0,1,0,1.5c0,0.9,0,2,0,3.2v2c0,1.7,0,3.2,0,4.5
		c0,1.3,0,2.7,0,4.2h6.1c0-1.4,0-2.8,0-4.2c0-1.4,0-2.9,0-4.5v-2c0-1.2,0-2.3,0-3.2c0-0.5,0-1,0-1.5c0.8,0,1.6,0,2.5,0
		c1.2,0,2.4,0,3.5,0v-4.7H64.3V226.1z"/>
	<path class="st3" d="M96.7,224.7c-0.6,1.1-1.3,2.3-1.9,3.4l-3,5.3h-0.4v-3.5c0-1.2,0-2.4,0-3.3c0-1,0-1.9,0-2.8c0-0.9,0-1.8,0-2.6
		l-5.8,0.2c0,1,0,1.9,0,2.8c0,0.9,0,1.9,0,3c0,1.1,0,2.2,0,3.6v2c0,1.7,0,3.2,0,4.5c0,1.3,0,2.7,0,4.2h6c0.7-1.1,1.3-2.3,1.9-3.4
		c0.7-1.2,1.3-2.3,2-3.5l2.9-5.2h0.4v3.6c0,1.6,0,3.1,0,4.4s0,2.7,0,4.1h5.8c0-1.4,0-2.8,0-4.2c0-1.4,0-2.9,0-4.5v-2
		c0-1.3,0-2.5,0-3.6c0-1.1,0-2.1,0-3c0-0.9,0-1.9,0-2.8h-6C97.9,222.5,97.3,223.6,96.7,224.7z"/>
	<path class="st3" d="M137,223.8c-0.6-1-1.3-1.7-2.2-2.2c-0.9-0.5-1.9-0.8-3.1-0.8c-0.7,0-1.4,0.1-2,0.3c-0.6,0.2-1.1,0.5-1.6,0.8
		c-0.5,0.3-0.9,0.7-1.2,1.1h-0.5v-1.4c0-1.8,0-3.6,0-5.3c0-1.7,0-3.3,0-4.9l-5.9,0.5c0,1.6,0,3.2,0,4.8c0,1.6,0,3.2,0,4.9v1.4H120
		c-0.3-0.4-0.7-0.7-1.2-1.1c-0.5-0.3-1-0.6-1.6-0.8c-0.6-0.2-1.3-0.3-2-0.3c-1.6,0-2.9,0.5-3.9,1.4c-1,0.9-1.8,2.2-2.3,3.8
		c-0.5,1.6-0.8,3.4-0.8,5.4c0,1.4,0.1,2.8,0.4,4.1c0.3,1.3,0.7,2.4,1.3,3.4c0.6,1,1.3,1.8,2.3,2.3c0.9,0.6,2,0.8,3.3,0.8
		c0.7,0,1.3-0.1,1.9-0.3c0.6-0.2,1.1-0.4,1.6-0.7c0.5-0.3,0.9-0.6,1.3-1h0.3v0.7c0,1.6,0,3.1,0,4.4c0,1.4,0,2.8,0,4.1l5.9-0.2
		c0-1.4,0-2.8,0-4.2c0-1.3,0-2.7,0-4.2v-0.7h0.3c0.4,0.4,0.8,0.7,1.3,1c0.5,0.3,1,0.5,1.6,0.7c0.6,0.2,1.2,0.3,1.9,0.3
		c1.7,0,3.1-0.5,4.2-1.5c1.1-1,1.9-2.3,2.3-3.9c0.5-1.6,0.7-3.4,0.7-5.3c0-1.5-0.1-2.9-0.4-4.2C138,225.9,137.6,224.8,137,223.8z
		 M120.5,235.4c-0.2,0.4-0.4,0.7-0.7,1c-0.3,0.3-0.6,0.5-0.9,0.6c-0.3,0.1-0.7,0.2-1.1,0.2c-0.7,0-1.2-0.1-1.7-0.4
		c-0.4-0.3-0.8-0.7-1.1-1.2c-0.3-0.5-0.5-1.2-0.6-1.8c-0.1-0.7-0.2-1.4-0.2-2.2c0-1.2,0.1-2.2,0.4-3c0.2-0.9,0.6-1.5,1.1-2
		c0.5-0.5,1.2-0.7,2-0.7c0.4,0,0.7,0.1,1,0.2c0.3,0.1,0.7,0.3,1,0.5c0.3,0.2,0.6,0.5,0.8,0.8V235.4z M132.4,234.3
		c-0.2,0.9-0.6,1.6-1.1,2.1c-0.5,0.5-1.2,0.8-2.1,0.8c-0.6,0-1.1-0.2-1.6-0.5c-0.4-0.3-0.8-0.8-1.1-1.3v-8.2
		c0.2-0.3,0.4-0.6,0.7-0.8c0.3-0.2,0.6-0.4,1-0.5c0.4-0.1,0.7-0.2,1.1-0.2c0.8,0,1.5,0.2,2,0.7c0.5,0.5,0.9,1.1,1.1,2
		c0.2,0.8,0.4,1.9,0.4,3C132.7,232.5,132.6,233.5,132.4,234.3z"/>
	<path class="st3" d="M142.7,224.2c0,0.9,0,1.9,0,3c0,1.1,0,2.2,0,3.6v2c0,1.7,0,3.2,0,4.5c0,1.3,0,2.7,0,4.2h6.1c0-1.4,0-2.8,0-4.2
		c0-1.4,0-2.9,0-4.5v-2c0-1.4,0-2.6,0-3.7s0-2.1,0-3.1c0-1,0-1.9,0-2.9l-6.1,0.2C142.7,222.3,142.7,223.3,142.7,224.2z"/>
	<path class="st3" d="M145.7,211.5c-1.2,0-2.1,0.3-2.7,0.9c-0.7,0.6-1,1.4-1,2.5c0,1.2,0.3,2.1,1,2.6c0.7,0.5,1.6,0.8,2.7,0.8
		c1.2,0,2.1-0.3,2.7-0.8c0.7-0.5,1-1.4,1-2.6c0-1-0.3-1.8-1-2.4C147.8,211.8,146.9,211.5,145.7,211.5z"/>
	<path class="st3" d="M168.3,234.2l-2.4-3.1l2-2.4c1-1.2,1.9-2.4,2.9-3.6c1-1.2,1.9-2.4,2.9-3.6h-7.1c-0.6,0.9-1.2,1.7-1.9,2.6
		c-0.6,0.9-1.2,1.7-1.9,2.6l-2,2.9h-1.1c0-1.4,0-2.7,0-4c0-1.4,0-2.8,0-4.3l-6.1,0.2c0,1,0,1.9,0,2.8c0,0.9,0,1.8,0,2.9
		c0,1,0,2.2,0,3.5v2.3c0,1.7,0,3.2,0,4.5c0,1.3,0,2.7,0,4.2h6.1c0-1.3,0-2.5,0-3.7c0-1.2,0-2.5,0-3.8v-0.5h1l2.3,3.1
		c0.6,0.8,1.2,1.6,1.8,2.4c0.6,0.8,1.2,1.7,1.8,2.5h7.5c-1-1.2-2-2.4-2.9-3.7C170.3,236.6,169.3,235.4,168.3,234.2z"/>
	<path class="st3" d="M190.2,221.6c-1.2-0.5-2.6-0.7-4.3-0.7c-0.9,0-1.8,0-2.6,0.1c-0.8,0.1-1.6,0.2-2.4,0.4
		c-0.8,0.1-1.5,0.3-2.1,0.5c-0.7,0.2-1.2,0.4-1.7,0.5l0.3,5.2c0.6-0.3,1.3-0.6,1.9-0.8c0.6-0.2,1.2-0.4,1.8-0.5
		c0.6-0.1,1.2-0.3,1.7-0.3c0.5-0.1,1-0.1,1.5-0.1c0.9,0,1.6,0.1,2.2,0.3c0.6,0.2,1.1,0.5,1.4,0.9c0.3,0.4,0.5,1,0.4,1.8l-5.7,0.9
		c-0.7,0.1-1.5,0.3-2.3,0.6c-0.8,0.3-1.5,0.6-2.1,1.1c-0.6,0.5-1.2,1.1-1.6,1.9c-0.4,0.8-0.6,1.7-0.6,2.9c0,1.2,0.2,2.3,0.7,3.2
		c0.5,0.9,1.2,1.6,2,2c0.9,0.5,1.9,0.7,3.1,0.7c1,0,1.8-0.2,2.6-0.5c0.8-0.3,1.4-0.7,2-1.2c0.6-0.5,1-1,1.4-1.5h0.5l0.4,2.7h5.2
		c0-1.2,0-2.4,0-3.5c0-1.1,0-2.1,0-3.2V233c0-0.8,0-1.6,0-2.6c0-1,0-1.8,0-2.4c0-1.7-0.3-3.1-1-4.1
		C192.3,222.8,191.4,222,190.2,221.6z M188.1,234.6c-0.3,0.6-0.7,1.1-1.1,1.5c-0.4,0.4-0.8,0.7-1.3,1c-0.5,0.2-1,0.3-1.4,0.3
		c-0.6,0-1.1-0.2-1.6-0.5c-0.5-0.3-0.7-0.9-0.7-1.6c0-0.5,0.1-0.9,0.3-1.3c0.2-0.4,0.5-0.7,0.8-0.9c0.4-0.2,0.8-0.4,1.3-0.5
		c0.9-0.2,1.5-0.3,2-0.4c0.5-0.1,0.9-0.2,1.1-0.3c0.3-0.1,0.5-0.2,0.6-0.3V234.6z"/>
	<path class="st3" d="M217,235.7c0-0.9,0-1.8,0-3v-2c0-1.3,0-2.5,0-3.6c0-1.1,0-2.1,0-3c0-0.9,0-1.9,0-2.8h-6.1c0,1,0,1.9,0,2.8
		c0,0.9,0,1.9,0,3c0,1.1,0,2.2,0,3.6v2c0,1.1,0,2.1,0,3c0,0.4,0,0.7,0,1h-6.6c0-0.3,0-0.7,0-1c0-0.9,0-1.8,0-3v-2c0-1.4,0-2.6,0-3.7
		s0-2.1,0-3.1c0-1,0-1.9,0-2.9l-6.1,0.2c0,1,0,1.9,0,2.8c0,0.9,0,1.9,0,3c0,1.1,0,2.2,0,3.6v2c0,1.7,0,3.2,0,4.5c0,1.3,0,2.7,0,4.2
		h16.4l0.2,5.4h5.2c0-0.8,0-1.6,0-2.4c0-0.8,0-1.6,0-2.4c0-0.8,0-1.7,0-2.6c0-0.9,0-1.8,0-2.6c-1,0-2,0-3,0
		C217,236.4,217,236.1,217,235.7z"/>
	<path class="st3" d="M226.2,211.5c-1.2,0-2.1,0.3-2.7,0.9c-0.7,0.6-1,1.4-1,2.5c0,1.2,0.3,2.1,1,2.6c0.7,0.5,1.6,0.8,2.7,0.8
		c1.2,0,2.1-0.3,2.7-0.8c0.7-0.5,1-1.4,1-2.6c0-1-0.3-1.8-1-2.4C228.3,211.8,227.4,211.5,226.2,211.5z"/>
	<path class="st3" d="M223.2,224.2c0,0.9,0,1.9,0,3c0,1.1,0,2.2,0,3.6v2c0,1.7,0,3.2,0,4.5c0,1.3,0,2.7,0,4.2h6.1c0-1.4,0-2.8,0-4.2
		c0-1.4,0-2.9,0-4.5v-2c0-1.4,0-2.6,0-3.7s0-2.1,0-3.1c0-1,0-1.9,0-2.9l-6.1,0.2C223.2,222.3,223.2,223.3,223.2,224.2z"/>
	<path class="st3" d="M249.3,221.4c-1.1,0-2.2,0-3.4,0c-1.2,0-2.4,0-3.6,0c-1.8,0-3.4,0.2-4.7,0.6c-1.3,0.4-2.3,1-3,1.9
		c-0.7,0.9-1,2.1-1,3.7c0,1.3,0.3,2.3,0.8,3.3c0.5,0.9,1.3,1.6,2.4,2.1c0.4,0.2,0.8,0.3,1.2,0.4l-1.5,2.3c-0.6,1-1.2,2-1.9,3
		c-0.6,1-1.3,2-1.9,3h6.6c0.5-0.9,1.1-1.8,1.6-2.6c0.5-0.9,1.1-1.8,1.6-2.6l1-1.6h2.7c0,0.9,0,1.7,0,2.4c0,0.8,0,1.5,0,2.2
		c0,0.7,0,1.5,0,2.2h5.9c0-1.4,0-2.8,0-4.2c0-1.4,0-2.9,0-4.5v-2c0-1.3,0-2.5,0-3.6c0-1.1,0-2.1,0-3c0-0.9,0-1.9,0-2.8
		C251.3,221.4,250.4,221.4,249.3,221.4z M240.2,226.8c0.3-0.4,0.7-0.7,1.2-0.8c0.5-0.2,1-0.2,1.5-0.2h3.2c0,0.8,0,1.6,0,2.4
		c0,0.8,0,1.7,0,2.6v0.1h-3c-0.3,0-0.7,0-1.1-0.1c-0.4-0.1-0.8-0.2-1.1-0.3c-0.4-0.2-0.6-0.4-0.9-0.7c-0.2-0.3-0.3-0.8-0.3-1.4
		C239.7,227.7,239.9,227.1,240.2,226.8z"/>
</g>
</svg>
