<svg width="126" height="125" viewBox="0 0 126 125" fill="none" xmlns="http://www.w3.org/2000/svg">
<g clip-path="url(#clip0)">
<path d="M0 0H126V78.35H0V0Z" fill="#AFCA0B"/>
<path d="M23.3 63.5C23.45 62.85 23.65 62.2 23.8 61.5C23.95 61 24.05 60.55 24.2 60.05C24.35 59.55 24.2 59.25 23.65 59.2C23.2 59.15 22.7 59.05 22.25 58.95C22.05 58.9 21.85 58.75 21.65 58.65C21.8 58.45 21.9 58.25 22.1 58.1C23 57.5 23.9 56.9 24.75 56.25C25.15 55.95 25.5 55.5 25.65 55.05C26.05 53.95 26.35 52.8 26.7 51.65C26.8 51.35 26.95 51.15 27.05 50.85C27.15 50.85 27.2 50.85 27.3 50.85C27.45 51.2 27.55 51.6 27.7 51.95C27.9 52.45 28.1 52.95 28.3 53.45C28.55 54.05 28.8 54.15 29.35 53.75C30.2 53.1 31.05 52.4 31.9 51.75C35.6 48.75 39.55 46.1 43.6 43.7C46.5 42 49.4 40.3 52.4 38.8C57.35 36.35 62.5 34.5 67.8 33.1C68.95 32.8 70.15 32.5 71.35 32.25C71.6 32.2 71.85 32.25 72.1 32.25C72.1 32.35 72.15 32.4 72.15 32.5C71.8 32.6 71.45 32.75 71.1 32.85C64.45 34.65 57.95 36.9 51.9 40.2C48.4 42.1 45.05 44.3 41.8 46.55C39.2 48.35 36.75 50.35 34.3 52.35C32.8 53.6 31.4 55 30.05 56.4C29.8 56.7 29.8 57.35 29.9 57.75C30.05 58.4 30.35 59.05 30.6 59.7C30.65 59.9 30.75 60.15 30.65 60.3C30.55 60.4 30.25 60.45 30.05 60.4C29.35 60.3 28.65 60.15 27.95 60C27.35 59.85 26.9 60 26.5 60.45C25.7 61.35 24.85 62.2 24 63.1C23.85 63.25 23.7 63.4 23.55 63.55C23.45 63.55 23.35 63.5 23.3 63.5Z" fill="white"/>
<path fill-rule="evenodd" clip-rule="evenodd" d="M23.3 63.5H23.35C23.4 63.5 23.45 63.55 23.5 63.5C23.65 63.35 23.8 63.2 23.95 63.05C24.2 62.8 24.45 62.55 24.65 62.3C24.8 62.15 24.95 62 25.1 61.85C25.4 61.55 25.7 61.2 26 60.85C26.15 60.7 26.25 60.55 26.4 60.4C26.8 59.95 27.25 59.8 27.85 59.95C28.1 60 28.3 60.05 28.55 60.1H28.6C28.7 60.1 28.75 60.15 28.85 60.15C28.9 60.15 28.95 60.15 29 60.2C29.35 60.25 29.65 60.3 30 60.35C30.2 60.4 30.5 60.35 30.6 60.25C30.7 60.1 30.6 59.85 30.55 59.65C30.5 59.45 30.4 59.25 30.3 59.05C30.3 59 30.25 58.95 30.25 58.85C30.2 58.7 30.15 58.55 30.1 58.4V58.35C30.05 58.15 29.95 57.9 29.9 57.7C29.8 57.25 29.8 56.6 30.05 56.35C31.1 55.25 32.15 54.2 33.25 53.2C33.6 52.9 33.9 52.6 34.25 52.3C36.7 50.3 39.15 48.25 41.75 46.5C42.6 45.95 43.4 45.35 44.25 44.8C46.75 43.15 49.25 41.55 51.85 40.15C52.15 40 52.5 39.8 52.8 39.65C57.65 37.15 62.7 35.25 67.95 33.7C69 33.4 70.05 33.1 71.05 32.8C71.15 32.75 71.3 32.75 71.4 32.7C71.5 32.65 71.6 32.6 71.75 32.6C71.85 32.55 71.95 32.55 72.05 32.5H72.1L72.05 32.25H72C71.95 32.25 71.85 32.25 71.8 32.25C71.6 32.25 71.45 32.25 71.3 32.25C71.2 32.3 71.05 32.3 70.95 32.35C69.9 32.6 68.85 32.85 67.8 33.1C62.5 34.5 57.3 36.35 52.4 38.8C52.05 38.95 51.75 39.15 51.4 39.3C48.75 40.65 46.2 42.15 43.6 43.7C42.7 44.25 41.8 44.8 40.95 45.35C38.25 47.05 35.6 48.9 33.05 50.85C32.7 51.15 32.35 51.4 32 51.7L31.95 51.75C31.75 51.9 31.6 52.05 31.4 52.2C30.75 52.75 30.1 53.25 29.4 53.75C28.85 54.15 28.6 54.05 28.35 53.45V53.4C28.3 53.3 28.25 53.2 28.25 53.1C28.1 52.7 27.95 52.3 27.8 51.95C27.7 51.7 27.65 51.5 27.55 51.25C27.5 51.15 27.5 51.05 27.45 51C27.45 50.95 27.4 50.9 27.4 50.85H27.15C27.15 50.9 27.1 50.9 27.1 50.95C27.1 51 27.05 51.05 27.05 51.1C26.95 51.25 26.9 51.45 26.8 51.65C26.7 51.9 26.65 52.15 26.55 52.4V52.45C26.5 52.55 26.5 52.65 26.45 52.8C26.4 53.05 26.3 53.3 26.25 53.55C26.1 54.05 25.95 54.55 25.75 55.05C25.6 55.5 25.25 55.95 24.85 56.25C24.45 56.6 24 56.9 23.55 57.2C23.4 57.3 23.25 57.4 23.15 57.5C23 57.6 22.8 57.75 22.65 57.85L22.6 57.9C22.45 58 22.35 58.1 22.2 58.15C22.05 58.25 21.95 58.4 21.9 58.55C21.85 58.6 21.8 58.65 21.75 58.75C21.8 58.8 21.9 58.8 21.95 58.85C22.1 58.95 22.2 59 22.35 59.05C22.55 59.1 22.7 59.15 22.9 59.15H22.95C23.2 59.2 23.45 59.25 23.65 59.25H23.7C23.8 59.25 23.9 59.3 23.95 59.3C24.2 59.4 24.35 59.6 24.3 59.9C24.3 59.95 24.3 60 24.25 60.1C24.15 60.4 24.05 60.75 24 61.05C23.95 61.2 23.9 61.35 23.85 61.55V61.6C23.75 61.95 23.65 62.3 23.55 62.7C23.5 62.85 23.45 63 23.45 63.15C23.45 63.25 23.4 63.3 23.4 63.4C23.35 63.4 23.3 63.45 23.3 63.5Z" fill="white"/>
<path d="M42.9 60.3C42.95 60 43 59.75 43.1 59.5C43.4 58.75 43.7 58 44 57.3C44.3 56.55 44.2 56.3 43.55 55.85C42.85 55.4 42.2 55 41.35 54.45C41.6 54.3 41.75 54.2 41.9 54.2C42.75 54.1 43.6 54 44.45 53.95C45 53.9 45.4 53.7 45.65 53.2C45.95 52.5 46.25 51.75 46.55 51.05C46.65 50.85 46.75 50.65 46.95 50.3C47.1 50.65 47.25 50.85 47.3 51.05C47.45 51.65 47.65 52.3 47.8 52.95C47.95 53.45 48.25 53.75 48.8 53.75C49.7 53.75 50.55 53.8 51.45 53.9C51.5 53.9 51.6 53.95 51.8 54.05C51.55 54.25 51.35 54.4 51.2 54.55C50.55 54.95 49.9 55.35 49.3 55.75C48.85 56.05 48.65 56.45 48.8 57C49 57.8 49.15 58.6 49.3 59.4C49.35 59.6 49.35 59.8 49.35 60C49.3 60.05 49.25 60.05 49.2 60.1C48.7 59.7 48.25 59.35 47.75 59C46.5 58 46.5 57.7 45 58.95C44.35 59.45 43.7 59.95 43.05 60.45C43.05 60.4 42.95 60.35 42.9 60.3Z" fill="white"/>
<path fill-rule="evenodd" clip-rule="evenodd" d="M43.8 56C43.75 55.95 43.65 55.9 43.55 55.85C43.05 55.55 42.55 55.2 42 54.85C41.8 54.75 41.6 54.6 41.4 54.45C41.45 54.4 41.55 54.4 41.6 54.35C41.75 54.25 41.85 54.2 41.95 54.2C42.75 54.1 43.55 54 44.35 53.95C44.4 53.95 44.45 53.95 44.5 53.95C45.05 53.9 45.45 53.7 45.7 53.2C45.75 53.1 45.75 53.05 45.8 52.95C45.9 52.65 46.05 52.4 46.15 52.1C46.25 51.8 46.4 51.55 46.5 51.25C46.55 51.15 46.55 51.1 46.6 51C46.65 50.9 46.7 50.75 46.8 50.65C46.85 50.55 46.95 50.4 47 50.25C47.05 50.35 47.1 50.45 47.15 50.5C47.25 50.7 47.35 50.85 47.35 51C47.4 51.1 47.4 51.25 47.45 51.35C47.45 51.35 47.45 51.35 47.45 51.4C47.6 51.9 47.7 52.4 47.85 52.9C47.85 52.95 47.9 53.05 47.9 53.1C48.05 53.45 48.3 53.65 48.75 53.7C48.8 53.7 48.8 53.7 48.85 53.7C49.5 53.7 50.1 53.75 50.75 53.8C50.85 53.8 50.95 53.8 51.05 53.8C51.2 53.8 51.35 53.8 51.5 53.85C51.55 53.85 51.6 53.9 51.7 53.95C51.75 53.95 51.8 54 51.85 54.05C51.8 54.1 51.8 54.1 51.75 54.15C51.65 54.2 51.6 54.3 51.5 54.35C51.5 54.35 51.5 54.35 51.45 54.35C51.35 54.4 51.25 54.5 51.2 54.55C50.9 54.75 50.55 54.95 50.25 55.15C49.95 55.35 49.6 55.55 49.3 55.75C48.85 56.05 48.65 56.45 48.8 57C48.85 57.1 48.85 57.25 48.9 57.35C48.9 57.4 48.95 57.5 48.95 57.55C49.05 57.95 49.1 58.35 49.2 58.75C49.25 58.95 49.3 59.15 49.3 59.35C49.35 59.5 49.35 59.6 49.35 59.75C49.35 59.8 49.35 59.85 49.35 59.85C49.35 59.9 49.35 59.9 49.35 59.95L49.3 60C49.25 60 49.25 60.05 49.2 60.05C49.15 60 49.1 60 49.1 59.95C48.95 59.85 48.85 59.75 48.7 59.65C48.65 59.6 48.55 59.55 48.5 59.5C48.25 59.3 48.05 59.15 47.8 58.95C47.7 58.85 47.55 58.75 47.45 58.65C47.3 58.55 47.2 58.45 47.1 58.35C46.65 58 46.35 57.9 45.75 58.3C45.55 58.45 45.3 58.6 45 58.85C44.9 58.95 44.8 59.05 44.65 59.15C44.4 59.35 44.15 59.55 43.85 59.75C43.75 59.8 43.65 59.9 43.55 59.95C43.4 60.05 43.25 60.2 43.1 60.3L43.05 60.35C43.05 60.35 43 60.3 42.95 60.3V60.25C42.95 60.2 42.95 60.15 43 60.1C43.05 59.9 43.05 59.7 43.15 59.5C43.4 58.85 43.65 58.25 43.9 57.6C43.95 57.5 44 57.4 44.05 57.3C44.1 57.25 44.1 57.15 44.15 57.1C44.25 56.6 44.2 56.3 43.8 56Z" fill="white"/>
<path d="M29.35 43.75C29.85 43.1 30.35 42.45 30.85 41.85C31.75 40.75 31.75 40.7 30.5 40C30 39.7 29.45 39.45 28.9 39.15C28.9 39.15 28.9 39.1 28.85 39C29 38.95 29.2 38.85 29.4 38.85C30.45 38.8 31.5 38.75 32.5 38.7C33.05 38.7 33.5 38.5 33.8 38.05C34.2 37.45 34.7 36.85 35.1 36.3C35.25 36.1 35.3 35.85 35.4 35.65C35.55 35.7 35.65 35.8 35.8 35.9C35.9 36.55 36 37.2 36.05 37.85C36.1 38.7 36.3 38.95 37.15 39.05C38 39.15 38.8 39.35 39.65 39.45C39.75 39.45 39.85 39.55 40.05 39.7C39.25 40 38.6 40.25 37.9 40.5C37.6 40.6 37.3 40.7 37 40.85C36.55 41.05 36.25 41.4 36.3 41.95C36.35 42.7 36.3 43.45 36.3 44.4C36 44.2 35.8 44.1 35.65 44C35.2 43.6 34.75 43.25 34.35 42.8C33.9 42.35 33.4 42.3 32.9 42.5C32.05 42.85 31.15 43.25 30.3 43.65C30.05 43.75 29.75 43.85 29.5 43.95C29.45 43.85 29.4 43.8 29.35 43.75Z" fill="white"/>
<path fill-rule="evenodd" clip-rule="evenodd" d="M29.4 43.7L29.35 43.75L29.4 43.8C29.45 43.85 29.5 43.9 29.5 43.95C29.55 43.95 29.55 43.95 29.6 43.9C29.65 43.9 29.7 43.85 29.75 43.85C29.95 43.8 30.15 43.7 30.3 43.6C30.55 43.5 30.8 43.35 31.05 43.25C31.35 43.1 31.7 42.95 32 42.8C32.25 42.7 32.55 42.55 32.8 42.45H32.85C33.35 42.2 33.85 42.25 34.3 42.7L34.35 42.75C34.65 43.1 35.05 43.4 35.4 43.7C35.5 43.75 35.55 43.85 35.65 43.9C35.75 44 35.9 44.05 36.05 44.15C36.1 44.2 36.2 44.25 36.3 44.3C36.3 44 36.3 43.75 36.3 43.5C36.3 43.4 36.3 43.25 36.3 43.15C36.3 43.15 36.3 43.15 36.3 43.1C36.3 42.65 36.3 42.25 36.3 41.85V41.8C36.3 41.35 36.45 41.1 36.8 40.9C36.85 40.85 36.9 40.85 36.9 40.85C36.9 40.85 36.9 40.85 36.95 40.85C37 40.85 37 40.8 37.05 40.8C37.25 40.7 37.45 40.65 37.7 40.55C37.8 40.5 37.9 40.5 37.95 40.45C38.45 40.25 38.9 40.1 39.45 39.9C39.5 39.9 39.55 39.85 39.65 39.85C39.8 39.8 39.95 39.75 40.15 39.65C40.1 39.6 40 39.55 39.95 39.55C39.85 39.45 39.75 39.4 39.7 39.4C39.45 39.35 39.25 39.3 39 39.25C38.5 39.15 37.95 39.05 37.4 39C37.35 39 37.25 39 37.2 38.95C36.95 38.9 36.75 38.85 36.6 38.8C36.35 38.7 36.25 38.55 36.15 38.25C36.1 38.1 36.1 37.95 36.1 37.75C36.1 37.45 36.05 37.1 36 36.8C36 36.7 35.95 36.6 35.95 36.45C35.9 36.25 35.9 36 35.85 35.8C35.8 35.75 35.7 35.7 35.65 35.7C35.6 35.65 35.55 35.6 35.45 35.6C35.4 35.7 35.4 35.75 35.35 35.85V35.9C35.3 36.05 35.25 36.15 35.2 36.25C35.1 36.4 35 36.55 34.9 36.7C34.8 36.85 34.65 37 34.55 37.15C34.4 37.35 34.25 37.55 34.1 37.7C34 37.8 33.95 37.9 33.85 38C33.5 38.5 33.05 38.7 32.5 38.7C32.4 38.7 32.3 38.7 32.2 38.7C31.9 38.7 31.55 38.7 31.25 38.75C30.65 38.8 30 38.8 29.4 38.85C29.35 38.85 29.25 38.85 29.2 38.9C29.15 38.9 29.1 38.95 29.05 38.95C29 38.95 28.95 39 28.9 39C28.9 39.05 28.95 39.1 28.95 39.1V39.15C29.1 39.25 29.25 39.3 29.45 39.4C29.45 39.4 29.45 39.4 29.5 39.4C29.5 39.4 29.55 39.4 29.55 39.45C29.9 39.65 30.25 39.8 30.55 40C31.1 40.3 31.4 40.5 31.5 40.7C31.5 40.75 31.5 40.85 31.5 40.9C31.45 41.1 31.25 41.4 30.9 41.8C30.6 42.15 30.3 42.5 30.05 42.85C29.8 43.15 29.6 43.4 29.4 43.7Z" fill="white"/>
<path d="M38.05 31.65C38.3 31 38.55 30.35 38.8 29.7C39.2 28.7 39.2001 28.65 38.1501 28.35C37.2501 28.1 36.35 27.85 35.3 27.6C35.5 27.45 35.6001 27.35 35.7001 27.35C36.7001 27.15 37.7001 26.95 38.7001 26.85C39.5001 26.75 40.15 26.5 40.35 25.55C40.45 25.05 40.65 24.6 40.85 24.15C40.9 24 41.0501 23.8 41.1501 23.8C41.3001 23.8 41.45 23.95 41.55 24.1C41.9 24.6 42.2 25.15 42.5 25.7C42.75 26.2 43.1501 26.45 43.7001 26.4C44.6001 26.35 45.5001 26.25 46.4001 26.2C46.6001 26.2 46.8 26.25 47 26.25C47 26.3 47.05 26.35 47.05 26.4C46.5 26.8 45.9501 27.2 45.4001 27.6C45.3001 27.65 45.2 27.7 45.1 27.75C44.05 28.4 44.05 28.45 44.6 29.5C44.9 30 45.1 30.55 45.35 31.05C45.4 31.1 45.35 31.15 45.35 31.35C45.1 31.25 44.8501 31.2 44.7001 31.1C43.9501 30.7 43.2001 30.25 42.4501 30C42.0501 29.85 41.45 29.9 41.05 30.1C40.05 30.6 39.1501 31.25 38.1501 31.8C38.2001 31.75 38.1 31.7 38.05 31.65Z" fill="white"/>
<path fill-rule="evenodd" clip-rule="evenodd" d="M38.1 31.55C38.1 31.6 38.1 31.6 38.05 31.65C38.1 31.7 38.2 31.75 38.25 31.8C38.3 31.8 38.3 31.75 38.35 31.75C38.6 31.6 38.85 31.45 39.1 31.3C39.6 31 40.05 30.7 40.55 30.4C40.6 30.35 40.6501 30.35 40.7001 30.3C40.8501 30.25 40.95 30.15 41.1 30.1C41.5 29.9 42.1 29.85 42.5 30C42.55 30 42.6501 30.05 42.7001 30.1C42.8501 30.15 43.0001 30.25 43.1501 30.3C43.4501 30.45 43.7 30.6 44 30.75C44.25 30.9 44.5001 31 44.7001 31.15C44.8001 31.2 44.9 31.25 45 31.3H45.05C45.1 31.3 45.1001 31.3 45.1501 31.35C45.2001 31.35 45.25 31.4 45.3 31.4C45.3 31.35 45.3 31.3 45.3 31.25C45.3 31.2 45.3 31.15 45.3 31.15C45.2 30.95 45.1 30.7 45 30.5C45 30.5 45 30.5 45 30.45C44.85 30.15 44.7 29.85 44.55 29.55C44.35 29.1 44.2001 28.85 44.2001 28.65C44.2001 28.55 44.2 28.5 44.25 28.4C44.35 28.2 44.6 28.05 45.05 27.8C45.1 27.8 45.1501 27.75 45.1501 27.75C45.2001 27.7 45.25 27.7 45.3 27.65L46.9501 26.45C46.9501 26.4 46.9501 26.4 46.9001 26.35C46.9001 26.3 46.9 26.3 46.85 26.25H46.8C46.75 26.25 46.7001 26.25 46.6501 26.25C46.5001 26.25 46.4 26.2 46.25 26.25C45.65 26.3 45.0001 26.35 44.4001 26.4H44.35C44.3 26.4 44.2001 26.4 44.1501 26.4H44.1C43.9 26.4 43.7 26.45 43.5 26.45C43.45 26.45 43.4 26.45 43.3 26.45C42.85 26.45 42.5 26.15 42.3 25.75C42.25 25.7 42.2501 25.65 42.2001 25.6C42.1501 25.55 42.15 25.5 42.1 25.4C41.95 25.1 41.75 24.8 41.55 24.55C41.45 24.4 41.4 24.3 41.3 24.15C41.2 24 41.0501 23.85 40.9001 23.85C40.8001 23.85 40.65 24.05 40.6 24.2C40.55 24.3 40.5001 24.4 40.4501 24.5C40.4001 24.55 40.4 24.65 40.35 24.7C40.35 24.7 40.35 24.7 40.35 24.75C40.25 25 40.15 25.3 40.1 25.6V25.65C40.1 25.75 40.05 25.8 40.05 25.9C39.9 26.35 39.5501 26.6 39.1501 26.7C38.9501 26.75 38.7 26.8 38.5 26.85C38.45 26.85 38.4 26.85 38.35 26.85C37.45 27 36.5501 27.15 35.6501 27.3C35.6001 27.3 35.55 27.3 35.5 27.35C35.4 27.35 35.35 27.4 35.25 27.5C35.2 27.55 35.15 27.6 35.05 27.65C35.2 27.7 35.35 27.75 35.5 27.75C35.5 27.75 35.5 27.75 35.55 27.75C36.4 27.95 37.1501 28.2 37.9001 28.4C38.4001 28.55 38.65 28.6 38.75 28.8C38.75 28.8 38.75 28.8 38.75 28.85C38.75 28.9 38.75 28.95 38.75 29C38.75 29.15 38.65 29.4 38.5 29.75C38.35 30.1 38.25 30.4 38.1 30.7C38.35 30.95 38.2 31.25 38.1 31.55Z" fill="white"/>
<path d="M59.1 20.25C58.55 20.45 58.1501 20.55 57.7001 20.7C57.4001 20.8 57.15 20.9 56.85 21C56.3 21.2 56.1501 21.5 56.4501 22.05C56.8001 22.7 57.05 23.35 57.35 24C57.45 24.2 57.5001 24.4 57.4001 24.7C57.2001 24.6 57.05 24.45 56.85 24.35C56.1 23.8 55.4001 23.25 54.6501 22.7C54.1501 22.35 53.65 22.3 53.1 22.55C52.6 22.8 52.1 23.05 51.55 23.3C51.35 23.4 51.1001 23.45 50.7001 23.6C50.9001 22.8 51.0001 22.15 51.2001 21.55C51.4001 20.9 51.3001 20.5 50.7001 20.2C49.8501 19.75 49.05 19.25 48.25 18.8C48.1 18.7 47.95 18.6 47.8 18.5C47.8 18.45 47.85 18.35 47.85 18.3C48.5 18.35 49.2 18.35 49.85 18.45C50.35 18.5 50.8 18.6 51.3 18.65C51.8 18.7 52.1001 18.4 52.2001 17.95C52.3501 17.3 52.5501 16.65 52.7001 15.95C52.7501 15.95 52.8501 15.9 52.9001 15.9C53.1001 16.15 53.3001 16.4 53.4501 16.7C53.7501 17.2 54.05 17.75 54.3 18.3C54.6 18.9 55.1 19.2 55.75 19.35C56.7 19.55 57.65 19.8 58.6 20.05C58.85 19.9 58.9 20.05 59.1 20.25Z" fill="white"/>
<path fill-rule="evenodd" clip-rule="evenodd" d="M48 18.2H47.95C47.95 18.25 47.95 18.25 47.95 18.3C47.95 18.35 47.95 18.35 47.95 18.4C47.95 18.4 47.95 18.4 48 18.4C48.05 18.45 48.1 18.45 48.15 18.5C48.25 18.55 48.35 18.65 48.45 18.7C48.65 18.85 48.8999 18.95 49.0999 19.1C49.3499 19.25 49.65 19.4 49.9 19.55C50.25 19.75 50.55 19.95 50.9 20.15C51.05 20.25 51.1999 20.35 51.2999 20.45C51.2999 20.5 51.3499 20.5 51.3499 20.55C51.4499 20.75 51.5 20.95 51.45 21.2C51.45 21.3 51.3999 21.4 51.3499 21.5C51.2999 21.7 51.25 21.9 51.15 22.1C51.15 22.1 51.15 22.1 51.15 22.15C51.1 22.4 51.05 22.6 51 22.9C50.95 23.15 50.8999 23.35 50.8499 23.6C50.9999 23.55 51.1 23.5 51.2 23.5C51.4 23.45 51.55 23.4 51.7 23.35C52.2 23.15 52.6499 22.9 53.0999 22.7C53.1499 22.7 53.15 22.65 53.2 22.65C53.65 22.4 54.0999 22.4 54.5499 22.65C54.6499 22.7 54.6999 22.75 54.7999 22.8C54.8999 22.85 54.9499 22.95 55.0499 23C55.2999 23.2 55.5999 23.4 55.8499 23.6C56.1999 23.85 56.4999 24.1 56.8499 24.35C56.8999 24.35 56.9 24.4 56.95 24.4C57.15 24.55 57.3 24.65 57.5 24.75C57.55 24.45 57.5 24.25 57.45 24.05C57.4 24 57.3999 23.9 57.3499 23.85C57.2999 23.75 57.25 23.6 57.2 23.5C57 23.05 56.7999 22.6 56.5499 22.15C56.3999 21.85 56.35 21.65 56.45 21.5C56.5 21.35 56.7 21.2 56.95 21.1C57.1 21.05 57.25 21 57.4 20.95C57.55 20.9 57.6999 20.85 57.8499 20.8C57.9999 20.75 58.1999 20.7 58.3499 20.65C58.4499 20.6 58.6 20.55 58.75 20.55H58.7999C58.9499 20.5 59.1 20.45 59.25 20.4C59.2 20.35 59.15 20.3 59.15 20.3C59 20.15 58.9499 20.1 58.8499 20.1C58.3999 20 57.9 19.85 57.45 19.75C57.1 19.65 56.75 19.6 56.4 19.5H56.3499C56.2499 19.5 56.1499 19.45 56.0499 19.45C55.3999 19.3 54.8999 19.05 54.5999 18.4C54.5499 18.35 54.55 18.25 54.5 18.2C54.25 17.7 54 17.25 53.75 16.8C53.6 16.6 53.4499 16.35 53.2999 16.15L53.25 16.1C53.2 16.05 53.2 16.05 53.15 16C53.1 16 53.0999 16 53.0499 16C52.9999 16 53 16 52.95 16C52.95 16.05 52.95 16.1 52.9 16.15C52.85 16.45 52.75 16.75 52.7 17C52.65 17.15 52.6499 17.25 52.5999 17.4C52.5499 17.6 52.5 17.8 52.45 18C52.4 18.15 52.3499 18.25 52.2999 18.35C52.2499 18.45 52.1499 18.55 52.0499 18.6C51.9999 18.65 51.9499 18.65 51.8499 18.65C51.7499 18.7 51.65 18.7 51.5 18.65C51.25 18.65 51 18.6 50.75 18.55C50.5 18.5 50.25 18.45 50 18.45C49.55 18.4 49.15 18.4 48.7 18.35C48.4 18.25 48.2 18.25 48 18.2Z" fill="white"/>
<path d="M70.2 48.4C70.9 48.7 71.65 48.95 72.3 49.2C73.75 49.8 73.7 49.8 74.2 48.35C74.35 47.95 74.5 47.6 74.6 47.2C74.65 47.2 74.75 47.2 74.85 47.2C75.15 47.95 75.5 48.65 75.7 49.4C76.05 50.6 76.95 51 78.05 51.25C78.75 51.4 79.4 51.55 80.1 51.7C80.1 51.75 80.1 51.85 80.15 51.9C79.8 52.05 79.45 52.2 79.05 52.35C78.7 52.5 78.35 52.65 77.95 52.8C77.4 52.95 77.4 53.3 77.6 53.75C77.9 54.4 78.2 55 78.55 55.6C78.65 55.8 78.7 56 78.9 56.35C78.55 56.2 78.4 56.15 78.25 56.05C77.5 55.5 76.75 55 76.1 54.4C75.55 53.9 75 53.65 74.3 54C73.9 54.2 73.4 54.3 72.95 54.45C72.45 54.6 72.35 54.4 72.45 53.95C72.55 53.5 72.65 53 72.85 52.6C73.25 51.85 72.85 51.4 72.35 50.9C71.7 50.25 71.05 49.6 70.35 48.9C70.25 48.8 70.2 48.7 70.1 48.55C70.15 48.5 70.2 48.4 70.2 48.4Z" fill="white"/>
<path fill-rule="evenodd" clip-rule="evenodd" d="M70.3 48.4H70.25C70.25 48.4 70.25 48.45 70.2 48.45C70.2 48.5 70.15 48.5 70.15 48.55C70.15 48.55 70.15 48.55 70.15 48.6L70.2 48.65C70.25 48.75 70.3 48.8 70.4 48.9C70.9 49.4 71.4 49.9 71.9 50.4C72.05 50.55 72.2 50.7 72.4 50.9C72.65 51.1 72.85 51.35 72.95 51.55C73.05 51.8 73.1 52.05 73 52.35C73 52.4 72.95 52.45 72.95 52.5C72.95 52.5 72.95 52.55 72.9 52.6C72.8 52.85 72.7 53.1 72.65 53.35V53.4C72.6 53.55 72.6 53.7 72.55 53.8C72.55 53.85 72.55 53.9 72.5 53.95C72.4 54.35 72.55 54.6 73 54.45C73.15 54.4 73.35 54.35 73.5 54.3C73.55 54.3 73.6 54.25 73.65 54.25H73.7C73.9 54.2 74.1 54.1 74.3 54C74.35 54 74.35 53.95 74.4 53.95C74.45 53.95 74.45 53.9 74.5 53.9C74.9 53.75 75.25 53.8 75.6 54C75.75 54.1 75.95 54.2 76.1 54.35C76.15 54.35 76.15 54.4 76.2 54.4C76.7 54.85 77.25 55.25 77.8 55.65C77.85 55.7 77.95 55.75 78 55.8C78.1 55.85 78.15 55.9 78.25 55.95C78.35 56 78.45 56.05 78.6 56.15C78.7 56.2 78.8 56.25 78.9 56.3C78.8 56.1 78.75 55.9 78.65 55.8C78.6 55.7 78.6 55.65 78.55 55.55C78.4 55.25 78.25 54.95 78.1 54.65C77.95 54.35 77.8 54.05 77.65 53.7C77.55 53.5 77.5 53.3 77.55 53.15C77.55 53.1 77.6 53.05 77.6 53C77.65 52.95 77.7 52.9 77.75 52.9C77.8 52.85 77.9 52.85 78 52.8C78.25 52.7 78.45 52.65 78.7 52.55C78.85 52.5 78.95 52.45 79.1 52.4C79.3 52.35 79.45 52.25 79.65 52.15C79.8 52.1 79.95 52 80.1 51.95C80.15 51.95 80.15 51.95 80.2 51.9C80.2 51.85 80.2 51.85 80.2 51.8C80.2 51.75 80.2 51.75 80.2 51.7H80.15C79.95 51.65 79.75 51.6 79.55 51.55C79.3 51.5 79.05 51.45 78.8 51.4C78.6 51.35 78.4 51.3 78.2 51.3C78 51.25 77.8 51.2 77.6 51.15C77.5 51.1 77.4 51.1 77.25 51.05C76.7 50.8 76.25 50.45 76 49.85C75.95 49.75 75.9 49.6 75.85 49.5C75.8 49.3 75.75 49.1 75.65 48.9C75.55 48.6 75.4 48.3 75.25 48C75.15 47.8 75.1 47.6 75 47.4C75 47.4 75 47.35 74.95 47.35C74.9 47.35 74.8 47.35 74.7 47.35C74.7 47.4 74.65 47.45 74.65 47.45C74.6 47.6 74.55 47.75 74.5 47.9C74.45 48.1 74.35 48.3 74.3 48.5C74.1 49.1 74 49.4 73.85 49.6C73.8 49.65 73.8 49.65 73.75 49.7C73.75 49.7 73.75 49.7 73.7 49.7C73.45 49.8 73.1 49.65 72.4 49.35C72 49.2 71.6 49.05 71.15 48.9C71 48.85 70.85 48.8 70.7 48.75C70.55 48.5 70.4 48.45 70.3 48.4Z" fill="white"/>
<path d="M62.1499 51.2C62.3999 51.95 62.6999 52.75 62.9499 53.5C63.1499 54.2 63.5499 54.6 64.2499 54.8C64.9499 55 65.5999 55.25 66.2499 55.45C66.3999 55.5 66.5499 55.6 66.8999 55.75C66.0999 56.05 65.4999 56.25 64.8999 56.5C64.1999 56.75 64.0999 56.95 64.3499 57.65C64.5999 58.3 64.8 58.9 65.05 59.55C65.1 59.7 65.1499 59.9 65.1999 60.05C65.1499 60.1 65.1 60.1 65.05 60.15C64.5 59.65 63.8999 59.15 63.3499 58.65C62.1499 57.55 62.1499 57.5 60.65 58.2C60.25 58.4 59.8 58.6 59.4 58.75C59.35 58.7 59.25 58.65 59.2 58.6C59.4 57.95 59.5999 57.25 59.8499 56.65C60.1999 55.95 60 55.45 59.45 54.9C58.75 54.25 58.1 53.6 57.45 52.9C57.5 52.85 57.4999 52.75 57.5499 52.7C57.8999 52.75 58.1999 52.85 58.5499 52.9C59.0499 53.05 59.5499 53.2 60.0499 53.4C60.8999 53.7 60.9999 53.6 61.2999 52.8C61.4999 52.25 61.6999 51.7 61.9499 51.15C61.9999 51.15 62.05 51.2 62.1499 51.2Z" fill="white"/>
<path fill-rule="evenodd" clip-rule="evenodd" d="M64.0001 54.7C63.5501 54.5 63.2501 54.2 63.0501 53.8C63.0001 53.7 63.0001 53.6 62.9501 53.5V53.45V53.4C62.8001 52.95 62.6501 52.45 62.5001 52C62.4001 51.75 62.3501 51.5 62.2501 51.3C62.2501 51.25 62.2501 51.25 62.2001 51.2C62.1001 51.2 62.0501 51.2 61.9501 51.15C61.9501 51.2 61.9001 51.25 61.9001 51.3C61.7001 51.8 61.5001 52.3 61.3001 52.85C61.1501 53.2 61.1001 53.45 60.9501 53.55H60.9001C60.8501 53.55 60.8001 53.6 60.7501 53.6C60.6001 53.6 60.4 53.55 60.1 53.45C59.95 53.4 59.75 53.35 59.6 53.3C59.25 53.2 58.95 53.1 58.6 53C58.4 52.95 58.1501 52.9 57.9501 52.85C57.8501 52.85 57.8001 52.8 57.7001 52.8H57.6501C57.6501 52.85 57.6 52.85 57.6 52.9C57.6 52.95 57.55 52.95 57.55 53L57.6 53.05C57.75 53.2 57.9 53.35 58.05 53.5C58.15 53.6 58.3001 53.75 58.4001 53.85C58.7501 54.25 59.15 54.6 59.55 54.95L59.6 55C59.75 55.15 59.9001 55.35 59.9501 55.5C60.0501 55.75 60.1001 56.05 60.0001 56.35C60.0001 56.4 59.9501 56.5 59.9001 56.55C59.9001 56.6 59.85 56.6 59.85 56.65C59.65 57.1 59.5 57.55 59.35 58C59.3 58.15 59.2501 58.3 59.2001 58.45C59.2001 58.5 59.1501 58.55 59.1501 58.6C59.2001 58.65 59.2001 58.65 59.2501 58.7C59.3001 58.75 59.3 58.75 59.35 58.8C59.4 58.8 59.4501 58.75 59.5001 58.75C59.9001 58.6 60.2501 58.4 60.6501 58.25C61.0001 58.1 61.3001 57.95 61.5501 57.9C61.9001 57.8 62.1501 57.8 62.4001 57.9C62.5501 58 62.7001 58.1 62.9001 58.25C63.0501 58.35 63.1501 58.5 63.3501 58.65L63.4001 58.7C63.7501 59 64.1 59.3 64.45 59.6C64.5 59.65 64.5501 59.7 64.6001 59.75C64.7501 59.9 64.9001 60 65.0501 60.15L65.1001 60.2L65.1501 60.15C65.2001 60.15 65.2 60.1 65.2 60.1C65.2 60.1 65.2 60.1 65.2 60.05C65.2 60 65.2001 59.95 65.1501 59.9C65.1001 59.8 65.1001 59.65 65.0501 59.55C64.8501 58.9 64.6001 58.3 64.3501 57.65V57.6C64.2501 57.3 64.2001 57.1 64.3001 56.95C64.3001 56.95 64.3001 56.9 64.3501 56.9C64.4501 56.75 64.65 56.65 64.95 56.55C65.3 56.4 65.6501 56.3 66.0501 56.15C66.3001 56.05 66.6001 55.95 66.9001 55.85C66.8001 55.8 66.7001 55.75 66.6501 55.7C66.5001 55.6 66.3501 55.55 66.2501 55.5C66.1501 55.45 66.0001 55.4 65.8501 55.35C65.3501 55.15 64.8501 55 64.3001 54.85C64.3001 54.85 64.3001 54.85 64.2501 54.85C64.2001 54.85 64.2001 54.85 64.1501 54.85C64.1501 54.75 64.0501 54.75 64.0001 54.7Z" fill="white"/>
<path d="M87.2 47.3C86.45 46.85 85.65 46.45 84.95 46C84.45 45.7 84.05 45.7 83.55 45.95C82.95 46.25 82.35 46.45 81.75 46.75C81.7 46.7 81.65 46.65 81.6 46.6C81.75 46.05 81.9 45.45 82.15 44.95C82.4 44.4 82.2 44.1 81.8 43.8C81.1 43.2 80.45 42.65 79.75 42.05C79.8 42 79.8 41.9 79.85 41.85C80.4 41.95 80.95 42.05 81.5 42.15C81.75 42.2 82 42.2 82.25 42.3C82.8 42.45 83.1 42.25 83.3 41.7C83.45 41.2 83.6 40.7 83.8 40.25C83.85 40.05 83.95 39.9 84.05 39.7C84.1 39.7 84.15 39.7 84.2 39.7C84.45 40.35 84.8 41 84.95 41.65C85.2 42.5 85.7 42.8 86.5 42.8C87.1 42.8 87.7 42.75 88.3 42.75C88.45 42.75 88.65 42.75 88.8 42.8C88.85 42.85 88.85 42.95 88.85 43C88.35 43.35 87.9 43.7 87.35 44.05C86.1 44.85 86.1 44.8 86.75 46.15C86.95 46.55 87.15 46.9 87.3 47.3C87.35 47.2 87.3 47.25 87.2 47.3Z" fill="white"/>
<path fill-rule="evenodd" clip-rule="evenodd" d="M83.95 45.8C84.15 45.75 84.35 45.75 84.55 45.8C84.7 45.85 84.8 45.9 84.95 46C85.2 46.15 85.5 46.35 85.75 46.5C86 46.65 86.25 46.8 86.5 46.95C86.7 47.05 86.9 47.15 87.05 47.25C87.1 47.25 87.15 47.3 87.15 47.3C87.2 47.25 87.25 47.2 87.3 47.1L86.75 45.95C86.45 45.3 86.25 45 86.35 44.7V44.65C86.35 44.6 86.4 44.6 86.4 44.55C86.4 44.5 86.45 44.5 86.45 44.45C86.6 44.3 86.9 44.1 87.3 43.85C87.6 43.65 87.9 43.45 88.2 43.25C88.25 43.2 88.35 43.15 88.4 43.1C88.5 43.05 88.6 42.95 88.7 42.9C88.75 42.9 88.75 42.85 88.8 42.85C88.8 42.8 88.75 42.8 88.75 42.75C88.75 42.7 88.75 42.7 88.7 42.65H88.65C88.5 42.65 88.35 42.65 88.2 42.65C87.9 42.65 87.6 42.65 87.3 42.65C87.05 42.65 86.8 42.65 86.55 42.65C86.5 42.65 86.45 42.65 86.4 42.65C86.1 42.65 85.85 42.6 85.65 42.55C85.45 42.45 85.25 42.35 85.1 42.1C85 41.95 84.9 41.75 84.85 41.5C84.75 41.15 84.6 40.8 84.45 40.45C84.4 40.35 84.35 40.25 84.3 40.15C84.25 40 84.2 39.85 84.1 39.75C84.1 39.7 84.05 39.65 84.05 39.65C84 39.65 83.95 39.65 83.9 39.65C83.9 39.65 83.9 39.7 83.85 39.7C83.85 39.7 83.85 39.75 83.8 39.75C83.75 39.9 83.65 40 83.6 40.15C83.45 40.65 83.25 41.1 83.1 41.6C83.05 41.75 83 41.9 82.9 42C82.9 42 82.9 42 82.85 42.05C82.65 42.2 82.4 42.25 82.1 42.15C81.9 42.1 81.7 42.05 81.5 42C81.45 42 81.4 42 81.35 42C80.8 41.9 80.3 41.8 79.75 41.7C79.7 41.7 79.7 41.7 79.65 41.7C79.65 41.75 79.6 41.75 79.6 41.8C79.6 41.85 79.55 41.85 79.55 41.9C79.55 41.9 79.6 41.9 79.6 41.95C80.1 42.35 80.55 42.8 81.05 43.2L81.1 43.25C81.25 43.4 81.4 43.5 81.55 43.65C81.55 43.65 81.6 43.65 81.6 43.7C81.8 43.85 81.95 44.05 82.05 44.25V44.3C82.1 44.45 82.05 44.65 81.95 44.85C81.75 45.25 81.65 45.65 81.55 46.05C81.5 46.15 81.5 46.25 81.45 46.4C81.45 46.45 81.45 46.5 81.4 46.5L81.55 46.65C81.6 46.65 81.65 46.6 81.7 46.6C81.85 46.55 82 46.45 82.15 46.4C82.55 46.25 82.95 46.05 83.35 45.85C83.7 45.85 83.8 45.8 83.95 45.8Z" fill="white"/>
<path d="M68.95 15.75C69.25 16.55 69.5 17.35 69.75 18.15C69.95 18.85 70.4 19.25 71.1 19.4C71.85 19.55 72.6 19.85 73.35 20.05C73.35 20.1 73.35 20.2 73.4 20.25C72.9 20.45 72.35 20.7 71.85 20.9C70.85 21.3 70.85 21.3 71.15 22.3C71.35 23 71.55 23.7 71.75 24.4C71.7 24.45 71.65 24.45 71.6 24.5C71.05 23.95 70.45 23.45 69.95 22.85C69.35 22.1 68.65 21.95 67.8 22.35C67.4 22.55 67 22.65 66.6 22.75C66.55 22.7 66.5 22.7 66.45 22.65C66.55 22.25 66.65 21.8 66.85 21.45C67.25 20.6 67.15 19.95 66.35 19.35C65.7 18.85 65.15 18.3 64.4 17.65C64.7 17.65 64.85 17.6 65 17.65C65.7 17.85 66.35 18.05 67.05 18.25C67.6 18.4 67.95 18.3 68.1 17.7C68.25 17.05 68.5 16.45 68.75 15.85C68.75 15.75 68.85 15.75 68.95 15.75Z" fill="white"/>
<path fill-rule="evenodd" clip-rule="evenodd" d="M70.6 19.2C70.25 19.05 70.05 18.8 69.85 18.5C69.8 18.4 69.75 18.25 69.7 18.15C69.7 18.1 69.7 18.1 69.65 18.05C69.5 17.45 69.3 16.9 69.1 16.35C69.05 16.2 69 16.05 68.95 15.9C68.95 15.85 68.9 15.8 68.9 15.8C68.85 15.8 68.75 15.8 68.65 15.8C68.65 15.85 68.65 15.85 68.6 15.9C68.55 16.05 68.5 16.2 68.45 16.35C68.3 16.8 68.1 17.25 68 17.7C67.95 17.9 67.9 18 67.8 18.1C67.75 18.15 67.7 18.25 67.6 18.25C67.45 18.3 67.25 18.3 67.05 18.25C67 18.25 66.95 18.25 66.95 18.2C66.25 18 65.6 17.8 64.9 17.6C64.8 17.6 64.75 17.6 64.6 17.6C64.5 17.6 64.4 17.6 64.3 17.6C64.45 17.75 64.6 17.9 64.8 18.05C64.9 18.15 64.95 18.2 65.05 18.3C65.45 18.7 65.85 19.05 66.25 19.35C66.35 19.45 66.45 19.55 66.55 19.6C66.75 19.8 66.85 20 66.9 20.25C66.9 20.35 66.95 20.4 66.95 20.5C66.95 20.6 66.95 20.65 66.95 20.75C66.9 20.95 66.85 21.15 66.75 21.4C66.6 21.65 66.55 21.95 66.45 22.25C66.45 22.3 66.45 22.35 66.4 22.35C66.4 22.45 66.35 22.5 66.35 22.6C66.4 22.6 66.4 22.65 66.45 22.65C66.5 22.65 66.5 22.7 66.55 22.7C66.6 22.7 66.6 22.7 66.65 22.65C66.75 22.6 66.85 22.6 66.95 22.55C67.25 22.45 67.5 22.4 67.75 22.25C67.9 22.15 68.1 22.1 68.25 22.05C68.25 22.05 68.25 22.05 68.3 22.05C68.4 22 68.55 22 68.65 22C68.8 22 68.9 22 69 22.05C69.25 22.15 69.55 22.3 69.75 22.55C69.8 22.6 69.85 22.65 69.9 22.7C70.25 23.15 70.65 23.55 71.1 23.9C71.25 24.05 71.35 24.15 71.5 24.3L71.55 24.35C71.6 24.35 71.6 24.3 71.65 24.3C71.7 24.3 71.7 24.25 71.75 24.25V24.2C71.65 23.85 71.55 23.55 71.45 23.2C71.35 22.85 71.25 22.5 71.15 22.15C71.1 22 71.1 21.9 71.05 21.8C71 21.55 70.95 21.4 71 21.25V21.2C71.05 21.15 71.1 21.1 71.15 21.05C71.3 20.95 71.5 20.85 71.85 20.75C72.2 20.6 72.6 20.45 72.95 20.3C73.05 20.25 73.2 20.2 73.3 20.15C73.35 20.15 73.35 20.1 73.4 20.1C73.4 20.05 73.4 20.05 73.4 20C73.4 19.95 73.4 19.95 73.4 19.9H73.35C73.1 19.85 72.9 19.75 72.65 19.7C72.2 19.55 71.8 19.45 71.35 19.3H71.3C71.25 19.3 71.2 19.25 71.15 19.25C70.9 19.3 70.75 19.25 70.6 19.2Z" fill="white"/>
<path d="M96.05 29.25C95.9 29.4 95.8 29.65 95.65 29.8C95.1 30.4 94.5 30.95 93.9 31.55C93.55 31.9 93.35 32.3 93.65 32.85C93.85 33.25 94 33.7 94.15 34.1C94.2 34.25 94.25 34.5 94.2 34.5C94.05 34.55 93.9 34.6 93.75 34.55C93.25 34.45 92.8 34.3 92.3 34.15C91.75 33.95 91.3 34.05 90.9 34.45C90.45 34.9 89.95 35.3 89.45 35.75C89.3 35.9 89.1 36.05 88.9 36.15C88.85 36.1 88.8 36.1 88.75 36.05C88.9 35.6 89.05 35.1 89.25 34.65C89.8 33.25 89.8 33.25 88.5 32.5C88.15 32.3 87.8 32.1 87.3 31.8C87.6 31.65 87.75 31.55 87.95 31.5C88.45 31.4 89 31.35 89.55 31.2C90.15 31.1 90.65 30.8 90.85 30.15C91.05 29.5 91.3 28.9 91.5 28.25C91.55 28.05 91.65 27.85 91.75 27.7C91.8 27.7 91.9 27.7 91.95 27.7C92.15 28.25 92.3 28.8 92.5 29.35C92.8 30.25 92.8 30.25 93.7 29.95C94.45 29.7 95.2 29.4 96 29.1C95.95 29.15 96 29.2 96.05 29.25Z" fill="white"/>
<path d="M80.2 20.55C80.9 20.55 81.6 20.55 82.35 20.55C82.8 20.55 83.05 20.35 83.2 19.9C83.35 19.15 83.6 18.45 83.8 17.7C83.85 17.55 83.9 17.45 84.05 17.15C84.35 18 84.55 18.65 84.8 19.3C85.1 20.2 85.2 20.25 86.15 20.25C86.8 20.25 87.45 20.15 88.1 20.1C88.15 20.15 88.15 20.25 88.2 20.3C87.9 20.55 87.65 20.75 87.35 20.95C85.6 22.2 85.7 21.9 86.45 23.8C86.6 24.15 86.7 24.45 86.8 24.8C86.75 24.85 86.7 24.9 86.65 24.95C86.1 24.65 85.5 24.35 84.95 24C84.45 23.7 84.05 23.65 83.6 24.05C83.1 24.5 82.55 24.9 82 25.35C81.95 25.3 81.85 25.3 81.8 25.25C81.9 24.75 82 24.2 82.15 23.7C82.45 22.55 82.45 22.6 81.55 21.9C81.05 21.5 80.6 21.1 80.1 20.65C80.1 20.65 80.15 20.6 80.2 20.55Z" fill="white"/>
<path fill-rule="evenodd" clip-rule="evenodd" d="M80.2 20.55C80.2 20.6 80.15 20.6 80.15 20.65C80.15 20.7 80.1 20.7 80.1 20.75C80.15 20.8 80.15 20.8 80.2 20.85C80.3 20.9 80.35 21 80.45 21.05C80.8 21.35 81.15 21.7 81.55 21.95C81.55 21.95 81.6 21.95 81.6 22C81.9 22.25 82.1 22.4 82.2 22.55L82.25 22.6C82.25 22.65 82.3 22.65 82.3 22.7C82.3 22.7 82.3 22.7 82.3 22.75C82.35 22.95 82.25 23.25 82.15 23.75C82.05 24.15 81.95 24.55 81.85 24.95C81.85 25.05 81.8 25.15 81.8 25.25C81.8 25.3 81.8 25.3 81.8 25.35C81.85 25.4 81.9 25.4 81.95 25.45H82L82.05 25.4C82.25 25.25 82.45 25.1 82.65 24.95C82.95 24.7 83.3 24.45 83.6 24.2C83.8 24 84.05 23.9 84.25 23.9H84.3C84.5 23.9 84.7 24 84.95 24.15C85.05 24.2 85.2 24.3 85.3 24.35C85.55 24.5 85.85 24.65 86.15 24.8C86.3 24.85 86.4 24.95 86.55 25C86.6 25 86.6 25.05 86.65 25.05L86.8 24.9C86.8 24.85 86.8 24.85 86.75 24.8C86.7 24.7 86.7 24.65 86.65 24.55C86.6 24.35 86.5 24.1 86.4 23.9C86.1 23.15 85.95 22.75 85.9 22.5C85.9 22.45 85.9 22.45 85.9 22.4C85.9 22.35 85.9 22.35 85.9 22.3V22.25C85.95 22.15 86 22.05 86.1 21.95C86.3 21.75 86.7 21.5 87.25 21.1C87.5 20.95 87.7 20.75 87.9 20.6C87.95 20.55 87.95 20.55 88 20.5C88.05 20.5 88.05 20.45 88.1 20.45C88.1 20.4 88.05 20.4 88.05 20.35C88.05 20.3 88 20.3 88 20.25H87.95C87.75 20.25 87.55 20.3 87.35 20.3C87.15 20.3 86.9 20.35 86.7 20.35C86.5 20.35 86.3 20.35 86.05 20.4C85.6 20.4 85.3 20.4 85.15 20.25C85.15 20.25 85.15 20.25 85.1 20.25C84.95 20.1 84.85 19.9 84.7 19.45C84.55 19.05 84.45 18.7 84.3 18.25C84.25 18.15 84.25 18.1 84.2 18C84.2 18 84.2 18 84.2 17.95C84.15 17.75 84.05 17.5 83.95 17.25C83.9 17.4 83.85 17.5 83.8 17.55C83.75 17.65 83.7 17.75 83.7 17.8C83.65 18 83.6 18.15 83.55 18.35C83.4 18.85 83.25 19.4 83.15 19.9V19.95C83.15 19.95 83.15 19.95 83.15 20C83.1 20.2 83.05 20.3 82.95 20.4C82.9 20.45 82.85 20.5 82.8 20.5C82.75 20.55 82.7 20.55 82.65 20.6C82.55 20.65 82.45 20.65 82.35 20.65H80.2V20.55Z" fill="white"/>
<path d="M99.95 15.45C100.1 15.95 100.3 16.4 100.4 16.9C100.55 17.4 100.8 17.6 101.35 17.4C102.1 17.1 102.85 16.9 103.6 16.65C103.65 16.7 103.65 16.75 103.7 16.85C103.4 17.1 103.15 17.35 102.9 17.6C102.7 17.8 102.45 18 102.25 18.25C101.25 19.2 101.25 19.2 101.85 20.45C101.95 20.65 102 20.9 102.15 21.3C101.4 21.2 100.7 21.15 100.1 21C99.6 20.85 99.2 21.05 98.9 21.4C98.35 21.9 97.8 22.4 97.25 22.9C97.05 23.05 96.85 23.2 96.65 23.35C96.6 23.3 96.55 23.3 96.5 23.25C96.75 22.65 97 22.05 97.25 21.45C97.6 20.6 97.55 20.5 96.65 20.15C96.25 20 95.8 19.8 95.4 19.65C95.35 19.65 95.35 19.6 95.35 19.45C95.8 19.3 96.25 19.05 96.7 19C97.95 18.8 98.85 18.2 99.15 16.9C99.25 16.45 99.55 16 99.7 15.6C99.85 15.45 99.9 15.45 99.95 15.45Z" fill="white"/>
<path fill-rule="evenodd" clip-rule="evenodd" d="M100 15.6C100 15.55 99.95 15.5 99.95 15.45C99.9 15.45 99.8 15.45 99.7 15.5C99.7 15.5 99.7 15.55 99.65 15.55C99.6 15.65 99.55 15.8 99.45 15.9C99.3 16.2 99.15 16.5 99.1 16.8C99.05 17 99 17.15 98.95 17.3C98.85 17.55 98.75 17.7 98.6 17.9C98.4 18.15 98.2 18.3 97.95 18.45C97.7 18.6 97.45 18.7 97.2 18.8C97.15 18.8 97.15 18.8 97.1 18.85C96.95 18.9 96.85 18.9 96.7 18.95C96.35 19 96.05 19.15 95.7 19.25C95.65 19.25 95.6 19.3 95.55 19.3H95.5C95.45 19.3 95.4 19.35 95.3 19.35C95.3 19.4 95.35 19.45 95.35 19.45C95.35 19.5 95.35 19.55 95.4 19.55C95.55 19.6 95.75 19.7 95.9 19.75C96.15 19.85 96.4 19.95 96.65 20.05C96.75 20.1 96.8 20.1 96.85 20.15C96.85 20.15 96.85 20.15 96.9 20.15C96.95 20.15 97 20.2 97.05 20.2C97.35 20.35 97.45 20.5 97.4 20.75C97.35 20.9 97.3 21.05 97.2 21.3C97.1 21.6 96.95 21.9 96.8 22.2C96.8 22.25 96.8 22.25 96.75 22.3C96.75 22.3 96.75 22.3 96.75 22.35C96.65 22.6 96.55 22.85 96.45 23.1V23.15C96.5 23.15 96.5 23.2 96.55 23.2L96.6 23.25C96.6 23.25 96.6 23.25 96.65 23.2C96.7 23.15 96.8 23.1 96.85 23.05C96.95 22.95 97.1 22.9 97.2 22.8C97.4 22.65 97.55 22.45 97.75 22.3C97.95 22.15 98.1 21.95 98.3 21.8C98.45 21.65 98.65 21.5 98.8 21.35C99 21.2 99.15 21.05 99.35 21C99.5 20.95 99.6 20.95 99.75 20.95C99.8 20.95 99.9 20.95 100 21C100.15 21.05 100.25 21.05 100.4 21.1C100.4 21.1 100.4 21.1 100.45 21.1C100.75 21.15 101 21.2 101.35 21.2C101.6 21.2 101.85 21.25 102.1 21.3C102.05 21.15 102 21.05 101.95 20.9C101.9 20.75 101.85 20.6 101.8 20.45C101.8 20.45 101.8 20.45 101.8 20.4C101.6 20 101.45 19.7 101.4 19.5C101.35 19.4 101.35 19.3 101.4 19.2C101.45 19.05 101.55 18.85 101.8 18.65C101.9 18.55 102.05 18.4 102.2 18.25C102.35 18.1 102.5 17.95 102.65 17.85C102.7 17.8 102.8 17.7 102.85 17.65C103.05 17.5 103.2 17.35 103.4 17.15C103.45 17.1 103.55 17 103.6 16.95C103.6 16.95 103.65 16.95 103.65 16.9C103.65 16.9 103.65 16.85 103.6 16.85C103.55 16.8 103.55 16.75 103.5 16.7H103.45C103.2 16.8 102.95 16.85 102.7 16.95C102.55 17 102.45 17.05 102.3 17.05H102.25C101.95 17.15 101.65 17.25 101.35 17.35C101.3 17.35 101.3 17.4 101.25 17.4C101.15 17.45 101 17.5 100.95 17.5C100.75 17.5 100.6 17.45 100.5 17.3C100.45 17.25 100.45 17.2 100.4 17.1C100.4 17.05 100.35 17 100.35 16.95C100.35 16.9 100.35 16.9 100.3 16.85C100.2 16.5 100.05 16.1 99.95 15.75C100.05 15.65 100.05 15.65 100 15.6Z" fill="white"/>
<path d="M11.2001 99.1L11.0501 96.65C10.8001 96.8 10.5501 96.9 10.3001 97C10.0501 97.1 9.75007 97.15 9.45007 97.2C9.15007 97.25 8.90007 97.25 8.60007 97.25C8.00007 97.25 7.45007 97.15 7.00007 97C6.55007 96.8 6.20007 96.55 5.90007 96.15C5.70007 95.9 5.60007 95.6 5.55007 95.25H6.65007C7.10007 95.25 7.50007 95.25 7.85007 95.25C8.20007 95.25 8.55007 95.25 8.85007 95.25C9.15007 95.25 9.50007 95.25 9.80007 95.25V93.45C9.35007 93.45 8.90007 93.45 8.40007 93.45C7.90007 93.45 7.35007 93.45 6.65007 93.45H5.50007C5.55007 93.1 5.65007 92.8 5.80007 92.6C6.00007 92.25 6.30007 92 6.70007 91.8C7.10007 91.6 7.60007 91.55 8.15007 91.55C8.35007 91.55 8.60007 91.55 8.90007 91.6C9.20007 91.65 9.50007 91.7 9.85007 91.8C10.2001 91.9 10.5501 92.05 10.9501 92.2L11.2001 89.8C10.9001 89.65 10.6001 89.55 10.2001 89.45C9.80007 89.35 9.40007 89.25 9.00007 89.2C8.60007 89.15 8.20007 89.1 7.80007 89.1C6.65007 89.1 5.65007 89.35 4.85007 89.8C4.05007 90.25 3.45007 90.9 3.05007 91.7C2.65007 92.5 2.45007 93.4 2.45007 94.45C2.45007 95.5 2.65007 96.4 3.10007 97.2C3.55007 98 4.15007 98.6 5.00007 99.05C5.85007 99.5 6.85007 99.7 8.05007 99.7C8.50007 99.7 8.95007 99.7 9.30007 99.65C9.70007 99.6 10.0001 99.55 10.3501 99.45C10.7001 99.3 11.0001 99.2 11.2001 99.1Z" fill="#0C4936"/>
<path d="M22 98.1C22.25 97.65 22.4 97.15 22.4 96.6C22.4 96.05 22.3 95.65 22.15 95.3C21.95 94.95 21.75 94.7 21.45 94.55C21.15 94.35 20.85 94.25 20.55 94.15V93.95C21 93.8 21.4 93.55 21.7 93.2C22.05 92.85 22.2 92.35 22.2 91.7C22.2 91.25 22.1 90.85 21.85 90.5C21.65 90.15 21.25 89.85 20.7 89.65C20.15 89.45 19.45 89.35 18.55 89.35C17.6 89.35 16.65 89.35 15.7 89.35C14.75 89.35 13.9 89.35 13.15 89.35C13.15 89.85 13.15 90.3 13.15 90.75C13.15 91.2 13.15 91.7 13.15 92.25C13.15 92.8 13.15 93.35 13.15 94.05V95.05C13.15 95.9 13.15 96.65 13.15 97.35C13.15 98.05 13.15 98.75 13.15 99.45C13.75 99.45 14.5 99.45 15.35 99.45C16.2 99.45 17.1 99.45 18.1 99.45C19.25 99.45 20.1 99.35 20.75 99.1C21.3 98.85 21.75 98.5 22 98.1ZM16.05 91.45H17.8C18.25 91.45 18.55 91.55 18.8 91.7C19.05 91.85 19.15 92.1 19.15 92.45C19.15 92.65 19.1 92.85 19 93.05C18.9 93.2 18.75 93.3 18.5 93.4C18.3 93.5 18 93.5 17.65 93.5H16.05C16.05 93.25 16.05 92.95 16.05 92.75C16.05 92.3 16.05 91.85 16.05 91.45ZM19.2 96.85C19.1 97 18.9 97.1 18.65 97.2C18.4 97.25 18.1 97.3 17.65 97.3H16C16 96.9 16 96.55 16 96.2C16 95.9 16 95.55 16 95.2H17.75C18.3 95.2 18.7 95.3 18.95 95.45C19.2 95.65 19.35 95.9 19.35 96.25C19.35 96.5 19.3 96.7 19.2 96.85Z" fill="#0C4936"/>
<path d="M27.3001 101.25C27.3001 100.6 27.3001 99.9 27.3001 99.15V98.4H27.5001C27.7001 98.7 27.9501 98.95 28.2501 99.15C28.5001 99.35 28.8001 99.5 29.1501 99.6C29.5001 99.7 29.8501 99.75 30.3001 99.75C31.2001 99.75 32.0001 99.5 32.6001 99C33.2001 98.5 33.6501 97.85 33.9501 97.05C34.2501 96.25 34.4001 95.35 34.4001 94.45C34.4001 93.45 34.2501 92.55 33.9501 91.75C33.6501 90.95 33.2001 90.3 32.5501 89.85C31.9501 89.4 31.2001 89.15 30.3001 89.15C29.8501 89.15 29.4501 89.2 29.1001 89.35C28.7501 89.45 28.4001 89.65 28.1001 89.85C27.8001 90.05 27.5501 90.35 27.3501 90.65H27.0001L26.9001 89.25L24.2001 89.4C24.2001 90.2 24.2001 91 24.2001 91.75C24.2001 92.5 24.2001 93.3 24.2001 94.1V99C24.2001 99.85 24.2001 100.6 24.2001 101.3C24.2001 102 24.2001 102.7 24.2001 103.45L27.2501 103.35C27.3001 102.6 27.3001 101.9 27.3001 101.25ZM27.3001 92.55C27.4501 92.35 27.6001 92.2 27.8001 92.05C28.0001 91.9 28.2001 91.8 28.4001 91.75C28.6001 91.7 28.8501 91.65 29.1001 91.65C29.6001 91.65 30.0001 91.75 30.3001 92C30.6001 92.25 30.8501 92.6 31.0001 93C31.1501 93.4 31.2501 93.85 31.2501 94.35C31.2501 94.8 31.2001 95.25 31.0501 95.7C30.9001 96.1 30.6501 96.45 30.3501 96.7C30.0501 96.95 29.6501 97.1 29.1501 97.1C28.8501 97.1 28.6001 97.05 28.4001 96.95C28.2001 96.85 28.0001 96.7 27.8001 96.55C27.6501 96.4 27.5001 96.2 27.3501 95.95V92.55H27.3001Z" fill="#0C4936"/>
<path d="M37.0501 98.1C37.5001 98.6 38.0501 99 38.7501 99.3C39.4501 99.6 40.2501 99.75 41.1501 99.75C42.3001 99.75 43.2501 99.5 44.0501 99.05C44.8501 98.6 45.4501 97.95 45.8501 97.15C46.2501 96.35 46.4501 95.45 46.4501 94.4C46.4501 93.65 46.3501 92.95 46.1001 92.35C45.9001 91.7 45.5501 91.15 45.1001 90.65C44.6501 90.15 44.1001 89.8 43.4001 89.55C42.7501 89.3 41.9501 89.15 41.0501 89.15C39.9001 89.15 38.9001 89.4 38.1001 89.85C37.3001 90.3 36.7001 90.95 36.3001 91.75C35.9001 92.55 35.7001 93.45 35.7001 94.45C35.7001 95.15 35.8001 95.8 36.0501 96.45C36.3001 97 36.6501 97.6 37.0501 98.1ZM39.1001 92.9C39.3001 92.5 39.5501 92.15 39.8501 91.9C40.2001 91.65 40.6001 91.55 41.1001 91.55C41.5501 91.55 41.9501 91.65 42.3001 91.9C42.6501 92.1 42.9001 92.45 43.1001 92.85C43.3001 93.25 43.4001 93.75 43.4001 94.35C43.4001 94.85 43.3001 95.3 43.1501 95.75C43.0001 96.2 42.7501 96.55 42.4001 96.8C42.0501 97.05 41.6501 97.2 41.1501 97.2C40.6501 97.2 40.2001 97.05 39.8501 96.8C39.5001 96.5 39.2501 96.15 39.1001 95.75C38.9501 95.3 38.8501 94.85 38.8501 94.35C38.8501 93.85 38.9501 93.35 39.1001 92.9Z" fill="#0C4936"/>
<path d="M51.45 97.35C51.45 96.65 51.45 95.9 51.45 95.1V94.1C51.45 93.5 51.45 92.95 51.45 92.5C51.45 92.25 51.45 92 51.45 91.75H54.85C54.85 92 54.85 92.25 54.85 92.5C54.85 92.95 54.85 93.5 54.85 94.1V95.1C54.85 95.95 54.85 96.7 54.85 97.35C54.85 98 54.85 98.7 54.85 99.45H57.9C57.9 98.75 57.9 98.05 57.9 97.35C57.9 96.65 57.9 95.9 57.9 95.1V94.1C57.9 93.45 57.9 92.85 57.9 92.3C57.9 91.75 57.9 91.25 57.9 90.8C57.9 90.35 57.9 89.85 57.9 89.35H48.4C48.4 89.85 48.4 90.3 48.4 90.8C48.4 91.25 48.4 91.75 48.4 92.3C48.4 92.85 48.4 93.4 48.4 94.1V95.1C48.4 95.95 48.4 96.7 48.4 97.35C48.4 98 48.4 98.7 48.4 99.45H51.45C51.45 98.7 51.45 98 51.45 97.35Z" fill="#0C4936"/>
<path d="M62.1501 99C63.0001 99.45 64.0501 99.7 65.3501 99.7C65.8501 99.7 66.3501 99.65 66.7501 99.6C67.2001 99.55 67.6001 99.45 67.9501 99.4C68.3001 99.3 68.6001 99.2 68.9001 99.05L68.8001 96.5C68.5001 96.65 68.1501 96.8 67.7501 96.9C67.4001 97 67.0001 97.1 66.6501 97.15C66.3001 97.2 66.0001 97.2 65.7001 97.2C65.0001 97.2 64.4501 97.1 64.0001 96.85C63.5501 96.65 63.2001 96.3 63.0001 95.9C62.8501 95.6 62.7501 95.25 62.7001 94.85H69.0001C69.0501 94.65 69.0501 94.45 69.0501 94.2C69.0501 94 69.0501 93.75 69.0501 93.5C69.0501 92.5 68.8501 91.65 68.5001 91C68.1501 90.35 67.6501 89.85 67.0001 89.5C66.3501 89.15 65.5501 89 64.6501 89C63.5501 89 62.6501 89.25 61.9001 89.7C61.1501 90.15 60.6501 90.75 60.2501 91.55C59.9001 92.35 59.7001 93.25 59.7001 94.3C59.7001 95.35 59.9001 96.25 60.3001 97.05C60.7001 97.9 61.3001 98.55 62.1501 99ZM63.6501 91.55C63.9501 91.3 64.3001 91.2 64.7001 91.2C65.2001 91.2 65.6001 91.4 65.9501 91.8C66.2501 92.15 66.4001 92.6 66.4001 93.2L62.7501 93.3C62.8001 93 62.8501 92.75 62.9501 92.55C63.1001 92.05 63.3501 91.75 63.6501 91.55Z" fill="#0C4936"/>
<path d="M75.7 88.2C77.1 88.2 78.1 87.9 78.7 87.25C79.35 86.6 79.65 85.7 79.65 84.55H77.25C77.25 84.9 77.2 85.25 77.1 85.55C77 85.85 76.85 86.05 76.6 86.2C76.35 86.35 76.05 86.45 75.65 86.45C75.05 86.45 74.65 86.25 74.4 85.9C74.2 85.55 74.05 85.05 74.05 84.45L71.65 84.55C71.65 85.75 72 86.65 72.65 87.25C73.3 87.9 74.3 88.2 75.7 88.2Z" fill="#0C4936"/>
<path d="M77.55 93.4V95.2C77.55 96 77.55 96.75 77.55 97.4C77.55 98.05 77.55 98.75 77.55 99.45H80.45C80.45 98.75 80.45 98.05 80.45 97.35C80.45 96.65 80.45 95.9 80.45 95.1V94.1C80.45 93.45 80.45 92.85 80.45 92.3C80.45 91.75 80.45 91.25 80.45 90.8C80.45 90.35 80.45 89.85 80.45 89.35H77.45C77.15 89.9 76.8 90.45 76.5 91.05C76.2 91.6 75.85 92.2 75.55 92.75L74.05 95.4H73.85V93.65C73.85 93.05 73.85 92.5 73.85 92C73.85 91.5 73.85 91.05 73.85 90.6C73.85 90.15 73.85 89.7 73.85 89.3L70.95 89.4C70.95 89.9 70.95 90.35 70.95 90.85C70.95 91.3 70.95 91.8 70.95 92.35C70.95 92.9 70.95 93.45 70.95 94.15V95.15C70.95 96 70.95 96.75 70.95 97.4C70.95 98.05 70.95 98.75 70.95 99.5H73.95C74.3 98.95 74.6 98.35 74.9 97.8C75.25 97.2 75.55 96.65 75.9 96.05L77.35 93.45H77.55V93.4Z" fill="#0C4936"/>
<path d="M90 99.4C90.3 99.3 90.55 99.25 90.8 99.15L90.65 96.55C90.45 96.7 90.2 96.8 89.95 96.9C89.7 97 89.45 97.05 89.2 97.1C88.95 97.15 88.7 97.15 88.45 97.15C87.8 97.15 87.25 97.05 86.8 96.8C86.35 96.55 86 96.2 85.8 95.8C85.6 95.35 85.45 94.85 85.45 94.3C85.45 93.5 85.7 92.85 86.15 92.35C86.6 91.85 87.25 91.6 88 91.6C88.2 91.6 88.45 91.6 88.7 91.65C88.95 91.7 89.25 91.75 89.55 91.85C89.9 91.95 90.25 92.1 90.6 92.35L90.8 89.75C90.5 89.6 90.2 89.45 89.85 89.35C89.5 89.25 89.1 89.15 88.7 89.1C88.3 89.05 87.9 89 87.5 89C86.35 89 85.4 89.25 84.6 89.7C83.85 90.15 83.25 90.8 82.85 91.6C82.45 92.4 82.25 93.3 82.25 94.35C82.25 95.35 82.45 96.25 82.9 97.05C83.3 97.85 83.95 98.45 84.75 98.9C85.55 99.35 86.55 99.6 87.7 99.6C88.15 99.6 88.6 99.6 88.95 99.55C89.35 99.55 89.7 99.45 90 99.4Z" fill="#0C4936"/>
<path d="M101.45 97.65C101.75 97.1 101.85 96.45 101.85 95.7C101.85 94.85 101.7 94.15 101.35 93.65C101 93.15 100.55 92.75 99.9 92.55C99.25 92.3 98.5 92.2 97.55 92.2C97.05 92.2 96.55 92.2 95.95 92.2C95.85 92.2 95.75 92.2 95.65 92.2C95.65 91.85 95.65 91.55 95.65 91.2C95.65 90.55 95.65 89.9 95.65 89.25L92.65 89.35C92.65 89.85 92.65 90.3 92.65 90.8C92.65 91.25 92.65 91.75 92.65 92.3C92.65 92.85 92.65 93.4 92.65 94.1V95.1C92.65 95.95 92.65 96.7 92.65 97.35C92.65 98 92.65 98.7 92.65 99.45C93.3 99.45 94.05 99.45 94.9 99.45C95.75 99.45 96.7 99.45 97.75 99.45C98.75 99.45 99.55 99.3 100.15 99C100.75 98.65 101.2 98.2 101.45 97.65ZM98.6 96.75C98.45 96.95 98.2 97.1 97.9 97.2C97.6 97.3 97.3 97.3 96.95 97.3H95.7C95.7 96.6 95.7 95.95 95.7 95.3C95.7 95 95.7 94.65 95.7 94.3H97.25C97.45 94.3 97.65 94.3 97.85 94.35C98.05 94.4 98.2 94.45 98.4 94.55C98.55 94.65 98.7 94.8 98.75 95C98.85 95.2 98.9 95.45 98.9 95.75C98.85 96.2 98.75 96.5 98.6 96.75Z" fill="#0C4936"/>
<path d="M112.35 97.6C111.85 97 111.35 96.35 110.85 95.75L109.65 94.2L110.65 93C111.15 92.4 111.6 91.8 112.1 91.2C112.6 90.6 113.05 90 113.55 89.4H110C109.7 89.85 109.4 90.25 109.05 90.7C108.75 91.15 108.45 91.55 108.1 92L107.1 93.45H106.55C106.55 92.75 106.55 92.1 106.55 91.45C106.55 90.75 106.55 90.05 106.55 89.3L103.5 89.4C103.5 89.9 103.5 90.35 103.5 90.8C103.5 91.25 103.5 91.7 103.5 92.25C103.5 92.75 103.5 93.35 103.5 94V95.15C103.5 96 103.5 96.75 103.5 97.4C103.5 98.05 103.5 98.75 103.5 99.5H106.55C106.55 98.85 106.55 98.25 106.55 97.65C106.55 97.05 106.55 96.4 106.55 95.75V95.5H107.05L108.2 97.05C108.5 97.45 108.8 97.85 109.1 98.25C109.4 98.65 109.7 99.1 110 99.5H113.75C113.35 98.8 112.85 98.2 112.35 97.6Z" fill="#0C4936"/>
<path d="M118.95 99.45C119.35 99.3 119.65 99.1 119.95 98.85C120.25 98.6 120.45 98.35 120.65 98.1H120.9L121.1 99.45H123.7C123.7 98.85 123.7 98.25 123.7 97.7C123.7 97.15 123.7 96.65 123.7 96.1V95.15C123.7 94.75 123.7 94.35 123.7 93.85C123.7 93.35 123.7 92.95 123.7 92.65C123.7 91.8 123.55 91.1 123.2 90.6C122.9 90.05 122.4 89.7 121.8 89.45C121.2 89.2 120.5 89.1 119.65 89.1C119.2 89.1 118.75 89.1 118.35 89.15C117.95 89.2 117.55 89.25 117.15 89.35C116.75 89.4 116.4 89.5 116.1 89.6C115.75 89.7 115.5 89.8 115.25 89.85L115.4 92.45C115.7 92.3 116.05 92.15 116.35 92.05C116.65 91.95 116.95 91.85 117.25 91.8C117.55 91.75 117.85 91.65 118.1 91.65C118.35 91.6 118.6 91.6 118.85 91.6C119.3 91.6 119.65 91.65 119.95 91.75C120.25 91.85 120.5 92 120.65 92.2C120.8 92.4 120.9 92.7 120.85 93.1L118 93.55C117.65 93.6 117.25 93.7 116.85 93.85C116.45 94 116.1 94.15 115.8 94.4C115.5 94.65 115.2 94.95 115 95.35C114.8 95.75 114.7 96.2 114.7 96.8C114.7 97.4 114.8 97.95 115.05 98.4C115.3 98.85 115.65 99.2 116.05 99.4C116.5 99.65 117 99.75 117.6 99.75C118.15 99.65 118.6 99.6 118.95 99.45ZM117.85 95.65C117.95 95.45 118.1 95.3 118.25 95.2C118.45 95.1 118.65 95 118.9 94.95C119.35 94.85 119.65 94.8 119.9 94.75C120.15 94.7 120.35 94.65 120.45 94.6C120.6 94.55 120.7 94.5 120.75 94.45V96C120.6 96.3 120.4 96.55 120.2 96.75C120 96.95 119.8 97.1 119.55 97.25C119.3 97.35 119.05 97.4 118.85 97.4C118.55 97.4 118.3 97.3 118.05 97.15C117.8 97 117.7 96.7 117.7 96.35C117.75 96.05 117.8 95.85 117.85 95.65Z" fill="#0C4936"/>
<path d="M5.65002 112.95C5.85002 112.95 6.10002 112.95 6.35002 113C6.60002 113.05 6.90002 113.1 7.20002 113.2C7.55002 113.3 7.90002 113.45 8.25002 113.7L8.45002 111.1C8.15002 110.95 7.85002 110.8 7.50002 110.7C7.15002 110.6 6.75002 110.5 6.35002 110.45C5.95002 110.4 5.55002 110.35 5.15002 110.35C4.00002 110.35 3.05002 110.6 2.25002 111.05C1.50002 111.5 0.900024 112.15 0.500024 112.95C0.100024 113.75 -0.0999756 114.65 -0.0999756 115.7C-0.0999756 116.7 0.100024 117.6 0.550024 118.4C1.00002 119.2 1.60002 119.8 2.40002 120.25C3.20002 120.7 4.20002 120.95 5.35002 120.95C5.80002 120.95 6.25002 120.95 6.60002 120.9C6.95002 120.85 7.30002 120.8 7.60002 120.7C7.90002 120.6 8.15002 120.55 8.40002 120.45L8.25002 117.85C8.05002 118 7.80002 118.1 7.55002 118.2C7.30002 118.3 7.05002 118.35 6.80002 118.4C6.55002 118.45 6.30002 118.45 6.05002 118.45C5.40002 118.45 4.85002 118.35 4.40002 118.1C3.95002 117.85 3.60002 117.5 3.40002 117.1C3.20002 116.65 3.05002 116.15 3.05002 115.6C3.05002 114.8 3.30002 114.15 3.75002 113.65C4.25002 113.2 4.85002 112.95 5.65002 112.95Z" fill="#0C4936"/>
<path d="M17.15 110.9C16.5 110.55 15.7 110.4 14.8 110.4C13.7 110.4 12.8 110.65 12.05 111.1C11.3 111.55 10.8 112.15 10.4 112.95C10.05 113.75 9.84998 114.65 9.84998 115.7C9.84998 116.75 10.05 117.65 10.45 118.45C10.85 119.25 11.45 119.9 12.3 120.35C13.15 120.8 14.2 121.05 15.5 121.05C16 121.05 16.5 121 16.9 120.95C17.35 120.9 17.75 120.8 18.1 120.75C18.45 120.65 18.75 120.55 19.05 120.4L18.95 117.85C18.65 118 18.3 118.15 17.9 118.25C17.55 118.35 17.15 118.45 16.8 118.5C16.45 118.55 16.15 118.55 15.85 118.55C15.15 118.55 14.6 118.45 14.15 118.2C13.7 118 13.35 117.65 13.15 117.25C13 116.95 12.9 116.6 12.85 116.2H19.1C19.15 116 19.15 115.8 19.15 115.55C19.15 115.35 19.15 115.1 19.15 114.85C19.15 113.85 18.95 113 18.6 112.35C18.3 111.7 17.8 111.2 17.15 110.9ZM13.8 112.85C14.1 112.6 14.45 112.5 14.85 112.5C15.35 112.5 15.75 112.7 16.1 113.1C16.4 113.45 16.55 113.9 16.55 114.5L12.9 114.6C12.95 114.3 13 114.05 13.1 113.85C13.25 113.4 13.5 113.1 13.8 112.85Z" fill="#0C4936"/>
<path d="M29.3 111.1C28.7 110.65 27.95 110.4 27.05 110.4C26.6 110.4 26.2 110.45 25.85 110.6C25.5 110.7 25.15 110.9 24.85 111.1C24.55 111.3 24.3 111.6 24.1 111.9H23.85L23.75 110.5L21.05 110.65C21.05 111.45 21.05 112.25 21.05 113C21.05 113.8 21.05 114.55 21.05 115.35V120.25C21.05 121.1 21.05 121.85 21.05 122.55C21.05 123.25 21.05 123.95 21.05 124.7L24.1 124.6C24.1 123.9 24.1 123.2 24.1 122.5C24.1 121.85 24.1 121.15 24.1 120.4V119.65H24.3C24.5 119.95 24.75 120.2 25.05 120.4C25.3 120.6 25.6001 120.75 25.9501 120.85C26.3001 120.95 26.65 121 27.1 121C28 121 28.8 120.75 29.4 120.25C30 119.75 30.45 119.1 30.75 118.3C31.05 117.5 31.2001 116.6 31.2001 115.7C31.2001 114.7 31.05 113.8 30.75 113C30.35 112.2 29.9 111.55 29.3 111.1ZM27.8 117.05C27.65 117.45 27.4 117.8 27.1 118.05C26.8 118.3 26.4 118.45 25.9 118.45C25.6 118.45 25.35 118.4 25.15 118.3C24.95 118.2 24.75 118.05 24.55 117.9C24.4 117.75 24.25 117.55 24.1 117.3V113.85C24.25 113.65 24.4 113.5 24.6 113.35C24.8 113.2 25.0001 113.1 25.2001 113.05C25.4001 113 25.65 112.95 25.9 112.95C26.4 112.95 26.8 113.05 27.1 113.3C27.4 113.55 27.65 113.9 27.8 114.3C27.95 114.7 28.05 115.15 28.05 115.65C28 116.2 27.95 116.65 27.8 117.05Z" fill="#0C4936"/>
<path d="M32.15 113.05C32.75 113.05 33.3 113.05 33.9 113.05C34.35 113.05 34.75 113.05 35.15 113.05C35.15 113.3 35.15 113.55 35.15 113.8C35.15 114.25 35.15 114.8 35.15 115.4V116.4C35.15 117.25 35.15 118 35.15 118.65C35.15 119.3 35.15 120 35.15 120.75H38.2C38.2 120.05 38.2 119.35 38.2 118.65C38.2 117.95 38.2 117.2 38.2 116.4V115.4C38.2 114.8 38.2 114.25 38.2 113.8C38.2 113.55 38.2 113.3 38.2 113.05C38.6 113.05 39 113.05 39.45 113.05C40.05 113.05 40.65 113.05 41.2 113.05V110.7H32.15V113.05Z" fill="#0C4936"/>
<path d="M48.35 112.35C48.05 112.9 47.7001 113.5 47.4001 114.05L45.9001 116.7H45.7001V114.95C45.7001 114.35 45.7001 113.75 45.7001 113.3C45.7001 112.8 45.7001 112.35 45.7001 111.9C45.7001 111.45 45.7001 111 45.7001 110.6L42.8 110.7C42.8 111.2 42.8 111.65 42.8 112.1C42.8 112.55 42.8 113.05 42.8 113.6C42.8 114.15 42.8 114.7 42.8 115.4V116.4C42.8 117.25 42.8 118 42.8 118.65C42.8 119.3 42.8 120 42.8 120.75H45.8C46.15 120.2 46.45 119.6 46.75 119.05C47.1 118.45 47.4 117.9 47.75 117.3L49.2001 114.7H49.4001V116.5C49.4001 117.3 49.4001 118.05 49.4001 118.7C49.4001 119.35 49.4001 120.05 49.4001 120.75H52.3C52.3 120.05 52.3 119.35 52.3 118.65C52.3 117.95 52.3 117.2 52.3 116.4V115.4C52.3 114.75 52.3 114.15 52.3 113.6C52.3 113.05 52.3 112.55 52.3 112.1C52.3 111.65 52.3 111.15 52.3 110.7H49.3C48.95 111.25 48.65 111.8 48.35 112.35Z" fill="#0C4936"/>
<path d="M68.5 111.9C68.2 111.4 67.85 111.05 67.4 110.8C66.95 110.55 66.45 110.4 65.85 110.4C65.5 110.4 65.15 110.45 64.85 110.55C64.55 110.65 64.3 110.8 64.05 110.95C63.8 111.1 63.6 111.3 63.45 111.5H63.2V110.8C63.2 109.9 63.2 109 63.2 108.15C63.2 107.3 63.2 106.5 63.2 105.7L60.25 105.95C60.25 106.75 60.25 107.55 60.25 108.35C60.25 109.15 60.25 109.95 60.25 110.8V111.5H60C59.85 111.3 59.65 111.15 59.4 110.95C59.15 110.8 58.9 110.65 58.6 110.55C58.3 110.45 57.95 110.4 57.6 110.4C56.8 110.4 56.15 110.65 55.65 111.1C55.15 111.55 54.75 112.2 54.5 113C54.25 113.8 54.1 114.7 54.1 115.7C54.1 116.4 54.15 117.1 54.3 117.75C54.45 118.4 54.65 118.95 54.95 119.45C55.25 119.95 55.6 120.35 56.1 120.6C56.55 120.9 57.1 121 57.75 121C58.1 121 58.4 120.95 58.7 120.85C59 120.75 59.25 120.65 59.5 120.5C59.75 120.35 59.95 120.2 60.15 120H60.3V120.35C60.3 121.15 60.3 121.9 60.3 122.55C60.3 123.25 60.3 123.95 60.3 124.6L63.25 124.5C63.25 123.8 63.25 123.1 63.25 122.4C63.25 121.75 63.25 121.05 63.25 120.3V119.95H63.4C63.6 120.15 63.8 120.3 64.05 120.45C64.3 120.6 64.55 120.7 64.85 120.8C65.15 120.9 65.45 120.95 65.8 120.95C66.65 120.95 67.35 120.7 67.9 120.2C68.45 119.7 68.85 119.05 69.05 118.25C69.3 117.45 69.4 116.55 69.4 115.6C69.4 114.85 69.35 114.15 69.2 113.5C69 112.95 68.8 112.4 68.5 111.9ZM60.25 117.7C60.15 117.9 60.05 118.05 59.9 118.2C59.75 118.35 59.6 118.45 59.45 118.5C59.3 118.55 59.1 118.6 58.9 118.6C58.55 118.6 58.3 118.55 58.05 118.4C57.85 118.25 57.65 118.05 57.5 117.8C57.35 117.55 57.25 117.2 57.2 116.9C57.15 116.55 57.1 116.2 57.1 115.8C57.1 115.2 57.15 114.7 57.3 114.3C57.4 113.85 57.6 113.55 57.85 113.3C58.1 113.05 58.45 112.95 58.85 112.95C59.05 112.95 59.2 113 59.35 113.05C59.5 113.1 59.7 113.2 59.85 113.3C60 113.4 60.15 113.55 60.25 113.7V117.7ZM66.2 117.15C66.1 117.6 65.9 117.95 65.65 118.2C65.4 118.45 65.05 118.6 64.6 118.6C64.3 118.6 64.05 118.5 63.8 118.35C63.6 118.2 63.4 117.95 63.25 117.7V113.6C63.35 113.45 63.45 113.3 63.6 113.2C63.75 113.1 63.9 113 64.1 112.95C64.3 112.9 64.45 112.85 64.65 112.85C65.05 112.85 65.4 112.95 65.65 113.2C65.9 113.45 66.1 113.75 66.2 114.2C66.3 114.6 66.4 115.15 66.4 115.7C66.35 116.25 66.3 116.75 66.2 117.15Z" fill="#0C4936"/>
<path d="M71.35 112.1C71.35 112.55 71.35 113.05 71.35 113.6C71.35 114.15 71.35 114.7 71.35 115.4V116.4C71.35 117.25 71.35 118 71.35 118.65C71.35 119.3 71.35 120 71.35 120.75H74.4C74.4 120.05 74.4 119.35 74.4 118.65C74.4 117.95 74.4 117.2 74.4 116.4V115.4C74.4 114.7 74.4 114.1 74.4 113.55C74.4 113 74.4 112.5 74.4 112C74.4 111.5 74.4 111.05 74.4 110.55L71.35 110.65C71.35 111.15 71.35 111.65 71.35 112.1Z" fill="#0C4936"/>
<path d="M72.85 105.75C72.25 105.75 71.8 105.9 71.5 106.2C71.15 106.5 71 106.9 71 107.45C71 108.05 71.15 108.5 71.5 108.75C71.85 109 72.3 109.15 72.85 109.15C73.45 109.15 73.9 109 74.2 108.75C74.55 108.5 74.7 108.05 74.7 107.45C74.7 106.95 74.55 106.55 74.2 106.25C73.9 105.9 73.45 105.75 72.85 105.75Z" fill="#0C4936"/>
<path d="M84.15 117.1L82.95 115.55L83.95 114.35C84.45 113.75 84.9 113.15 85.4 112.55C85.9 111.95 86.35 111.35 86.85 110.75H83.3C83 111.2 82.7 111.6 82.35 112.05C82.05 112.5 81.75 112.9 81.4 113.35L80.4 114.8H79.85C79.85 114.1 79.85 113.45 79.85 112.8C79.85 112.1 79.85 111.4 79.85 110.65L76.8 110.75C76.8 111.25 76.8 111.7 76.8 112.15C76.8 112.6 76.8 113.05 76.8 113.6C76.8 114.1 76.8 114.7 76.8 115.35V116.5C76.8 117.35 76.8 118.1 76.8 118.75C76.8 119.4 76.8 120.1 76.8 120.85H79.85C79.85 120.2 79.85 119.6 79.85 119C79.85 118.4 79.85 117.75 79.85 117.1V116.85H80.35L81.5 118.4C81.8 118.8 82.1 119.2 82.4 119.6C82.7 120 83 120.45 83.3 120.85H87.05C86.55 120.25 86.05 119.65 85.6 119C85.15 118.3 84.65 117.7 84.15 117.1Z" fill="#0C4936"/>
<path d="M95.1 110.8C94.5 110.55 93.8 110.45 92.95 110.45C92.5 110.45 92.05 110.45 91.65 110.5C91.25 110.55 90.85 110.6 90.45 110.7C90.05 110.75 89.7 110.85 89.4 110.95C89.05 111.05 88.8 111.15 88.55 111.2L88.7 113.8C89 113.65 89.35 113.5 89.65 113.4C89.95 113.3 90.25 113.2 90.55 113.15C90.85 113.1 91.15 113 91.4 113C91.65 112.95 91.9 112.95 92.15 112.95C92.6 112.95 92.95 113 93.25 113.1C93.55 113.2 93.8 113.35 93.95 113.55C94.1 113.75 94.2 114.05 94.15 114.45L91.3 114.9C90.95 114.95 90.55 115.05 90.15 115.2C89.75 115.35 89.4 115.5 89.1 115.75C88.8 116 88.5 116.3 88.3 116.7C88.1 117.1 88 117.55 88 118.15C88 118.75 88.1 119.3 88.35 119.75C88.6 120.2 88.95 120.55 89.35 120.75C89.8 121 90.3 121.1 90.9 121.1C91.4 121.1 91.8 121 92.2 120.85C92.6 120.7 92.9 120.5 93.2 120.25C93.5 120 93.7 119.75 93.9 119.5H94.15L94.35 120.85H96.95C96.95 120.25 96.95 119.65 96.95 119.1C96.95 118.55 96.95 118.05 96.95 117.5V116.5C96.95 116.1 96.95 115.7 96.95 115.2C96.95 114.7 96.95 114.3 96.95 114C96.95 113.15 96.8 112.45 96.45 111.95C96.15 111.4 95.7 111 95.1 110.8ZM94.05 117.3C93.9 117.6 93.7 117.85 93.5 118.05C93.3 118.25 93.1 118.4 92.85 118.55C92.6 118.65 92.35 118.7 92.15 118.7C91.85 118.7 91.6 118.6 91.35 118.45C91.1 118.3 91 118 91 117.65C91 117.4 91.05 117.2 91.15 117C91.25 116.8 91.4 116.65 91.55 116.55C91.75 116.45 91.95 116.35 92.2 116.3C92.65 116.2 92.95 116.15 93.2 116.1C93.45 116.05 93.65 116 93.75 115.95C93.9 115.9 94 115.85 94.05 115.8V117.3V117.3Z" fill="#0C4936"/>
<path d="M108.5 117.85C108.5 117.4 108.5 116.95 108.5 116.35V115.35C108.5 114.7 108.5 114.1 108.5 113.55C108.5 113 108.5 112.5 108.5 112.05C108.5 111.6 108.5 111.1 108.5 110.65H105.45C105.45 111.15 105.45 111.6 105.45 112.05C105.45 112.5 105.45 113 105.45 113.55C105.45 114.1 105.45 114.65 105.45 115.35V116.35C105.45 116.9 105.45 117.4 105.45 117.85C105.45 118.05 105.45 118.2 105.45 118.35H102.15C102.15 118.2 102.15 118 102.15 117.85C102.15 117.4 102.15 116.95 102.15 116.35V115.35C102.15 114.65 102.15 114.05 102.15 113.5C102.15 112.95 102.15 112.45 102.15 111.95C102.15 111.45 102.15 111 102.15 110.5L99.1 110.6C99.1 111.1 99.1 111.55 99.1 112C99.1 112.45 99.1 112.95 99.1 113.5C99.1 114.05 99.1 114.6 99.1 115.3V116.3C99.1 117.15 99.1 117.9 99.1 118.55C99.1 119.2 99.1 119.9 99.1 120.65H107.3L107.4 123.35H110C110 122.95 110 122.55 110 122.15C110 121.75 110 121.35 110 120.95C110 120.55 110 120.1 110 119.65C110 119.2 110 118.75 110 118.35C109.5 118.35 109 118.35 108.5 118.35C108.5 118.2 108.5 118.05 108.5 117.85Z" fill="#0C4936"/>
<path d="M113.1 105.75C112.5 105.75 112.05 105.9 111.75 106.2C111.4 106.5 111.25 106.9 111.25 107.45C111.25 108.05 111.4 108.5 111.75 108.75C112.1 109 112.55 109.15 113.1 109.15C113.7 109.15 114.15 109 114.45 108.75C114.8 108.5 114.95 108.05 114.95 107.45C114.95 106.95 114.8 106.55 114.45 106.25C114.15 105.9 113.7 105.75 113.1 105.75Z" fill="#0C4936"/>
<path d="M111.6 112.1C111.6 112.55 111.6 113.05 111.6 113.6C111.6 114.15 111.6 114.7 111.6 115.4V116.4C111.6 117.25 111.6 118 111.6 118.65C111.6 119.3 111.6 120 111.6 120.75H114.65C114.65 120.05 114.65 119.35 114.65 118.65C114.65 117.95 114.65 117.2 114.65 116.4V115.4C114.65 114.7 114.65 114.1 114.65 113.55C114.65 113 114.65 112.5 114.65 112C114.65 111.5 114.65 111.05 114.65 110.55L111.6 110.65C111.6 111.15 111.6 111.65 111.6 112.1Z" fill="#0C4936"/>
<path d="M124.65 110.7C124.1 110.7 123.55 110.7 122.95 110.7C122.35 110.7 121.75 110.7 121.15 110.7C120.25 110.7 119.45 110.8 118.8 111C118.15 111.2 117.65 111.5 117.3 111.95C116.95 112.4 116.8 113 116.8 113.8C116.8 114.45 116.95 114.95 117.2 115.45C117.45 115.9 117.85 116.25 118.4 116.5C118.6 116.6 118.8 116.65 119 116.7L118.25 117.85C117.95 118.35 117.65 118.85 117.3 119.35C117 119.85 116.65 120.35 116.35 120.85H119.65C119.9 120.4 120.2 119.95 120.45 119.55C120.7 119.1 121 118.65 121.25 118.25L121.75 117.45H123.1C123.1 117.9 123.1 118.3 123.1 118.65C123.1 119.05 123.1 119.4 123.1 119.75C123.1 120.1 123.1 120.5 123.1 120.85H126.05C126.05 120.15 126.05 119.45 126.05 118.75C126.05 118.05 126.05 117.3 126.05 116.5V115.5C126.05 114.85 126.05 114.25 126.05 113.7C126.05 113.15 126.05 112.65 126.05 112.2C126.05 111.75 126.05 111.25 126.05 110.8C125.65 110.7 125.2 110.7 124.65 110.7ZM120.1 113.4C120.25 113.2 120.45 113.05 120.7 113C120.95 112.9 121.2 112.9 121.45 112.9H123.05C123.05 113.3 123.05 113.7 123.05 114.1C123.05 114.5 123.05 114.95 123.05 115.4V115.45H121.55C121.4 115.45 121.2 115.45 121 115.4C120.8 115.35 120.6 115.3 120.45 115.25C120.25 115.15 120.15 115.05 120 114.9C119.9 114.75 119.85 114.5 119.85 114.2C119.85 113.85 119.95 113.55 120.1 113.4Z" fill="#0C4936"/>
</g>
<defs>
<clipPath id="clip0">
<rect width="126" height="125" fill="white"/>
</clipPath>
</defs>
</svg>
